#FIG 3.2
Landscape
Center
Inches
Letter  
100.00
Single
-2
1200 2
2 1 0 3 0 7 50 0 -1 8.000 0 0 -1 0 0 2
	 1200 4125 4800 4125
2 1 0 1 0 7 50 0 -1 4.000 0 0 -1 0 0 2
	 3150 3975 3150 3375
2 1 0 1 0 7 50 0 -1 4.000 0 0 -1 1 0 2
	1 1 1.00 60.00 120.00
	 900 3600 3150 3600
2 1 0 1 0 7 50 0 -1 4.000 0 0 -1 1 0 2
	1 1 1.00 60.00 120.00
	 3150 3825 3525 3825
2 1 0 1 0 7 50 0 -1 4.000 0 0 -1 1 0 2
	1 1 1.00 60.00 120.00
	 3975 4125 3975 5025
2 1 0 1 0 7 50 0 -1 4.000 0 0 -1 0 0 2
	 3525 5025 4125 5025
2 1 0 1 0 7 50 0 -1 4.000 0 0 -1 0 0 2
	 3525 5025 3525 3750
3 2 1 3 0 7 50 0 -1 8.000 0 0 0 3
	 1650 4725 3300 5025 4950 5025
	 0.000 -1.000 0.000
3 2 0 2 0 7 50 0 -1 6.000 0 1 0 2
	0 0 2.00 120.00 240.00
	 1200 4125 1650 4725
	 0.000 0.000
3 2 0 2 0 7 50 0 -1 6.000 0 1 0 2
	0 0 2.00 120.00 240.00
	 3150 4125 3525 5025
	 0.000 0.000
3 2 0 2 0 7 50 0 -1 6.000 0 1 0 2
	0 0 2.00 120.00 240.00
	 4800 4125 4950 5025
	 0.000 0.000
4 0 0 50 0 0 24 0.0000 4 180 195 1950 3525 x\001
4 0 0 50 0 0 24 0.0000 4 330 630 3300 3750 u(x)\001
4 0 0 50 0 0 24 0.0000 4 330 600 4050 4800 v(x)\001
