#FIG 3.2
Landscape
Center
Inches
Letter  
100.00
Single
-2
1200 2
5 1 0 1 0 7 50 0 -1 0.000 0 1 1 0 1537.500 4312.500 2025 3975 1875 3825 1725 3750
	1 1 1.00 60.00 120.00
5 1 0 2 0 7 50 0 -1 6.000 0 1 1 0 7454.605 4726.974 7725 4350 7350 4275 7050 4500
	1 1 2.00 120.00 240.00
6 975 3525 6150 5250
1 3 0 1 0 7 50 0 -1 4.000 1 0.0000 2400 3600 75 75 2400 3600 2475 3600
1 3 0 1 0 7 50 0 -1 4.000 1 0.0000 4800 3600 75 75 4800 3600 4875 3600
2 1 0 3 0 7 50 0 -1 8.000 0 0 -1 0 0 2
	 1200 4800 2325 3675
2 1 0 3 0 7 50 0 -1 8.000 0 0 -1 0 0 2
	 2475 3600 4725 3600
2 1 0 3 0 7 50 0 -1 8.000 0 0 -1 0 0 2
	 4875 3675 6000 4800
2 1 0 2 0 7 50 0 -1 6.000 0 0 -1 0 0 2
	 1050 4650 1350 4950
2 1 0 1 0 7 50 0 -1 4.000 0 0 -1 0 0 2
	 1050 4650 1050 4950
2 1 0 1 0 7 50 0 -1 4.000 0 0 -1 0 0 2
	 1200 4800 1200 5100
2 1 0 1 0 7 50 0 -1 4.000 0 0 -1 0 0 2
	 1200 4800 1200 5100
2 1 0 1 0 7 50 0 -1 4.000 0 0 -1 0 0 2
	 1350 4950 1350 5250
2 3 0 1 0 7 50 0 -1 4.000 0 0 -1 0 0 4
	 5850 5025 6000 4800 6150 5025 5850 5025
-6
6 7350 3525 12525 5250
1 3 0 1 0 7 50 0 -1 4.000 1 0.0000 8775 3600 75 75 8775 3600 8850 3600
1 3 0 1 0 7 50 0 -1 4.000 1 0.0000 11175 3600 75 75 11175 3600 11250 3600
2 1 0 3 0 7 50 0 -1 8.000 0 0 -1 0 0 2
	 7575 4800 8700 3675
2 1 0 3 0 7 50 0 -1 8.000 0 0 -1 0 0 2
	 8850 3600 11100 3600
2 1 0 3 0 7 50 0 -1 8.000 0 0 -1 0 0 2
	 11250 3675 12375 4800
2 1 0 2 0 7 50 0 -1 6.000 0 0 -1 0 0 2
	 7425 4650 7725 4950
2 1 0 1 0 7 50 0 -1 4.000 0 0 -1 0 0 2
	 7425 4650 7425 4950
2 1 0 1 0 7 50 0 -1 4.000 0 0 -1 0 0 2
	 7575 4800 7575 5100
2 1 0 1 0 7 50 0 -1 4.000 0 0 -1 0 0 2
	 7575 4800 7575 5100
2 1 0 1 0 7 50 0 -1 4.000 0 0 -1 0 0 2
	 7725 4950 7725 5250
2 3 0 1 0 7 50 0 -1 4.000 0 0 -1 0 0 4
	 12225 5025 12375 4800 12525 5025 12225 5025
-6
2 1 0 1 0 7 50 0 -1 4.000 0 0 -1 0 0 2
	 1200 5100 1200 5625
2 1 0 1 0 7 50 0 -1 4.000 0 0 -1 0 0 2
	 6000 5025 6000 5550
2 1 0 1 0 7 50 0 -1 4.000 0 0 -1 0 0 2
	 2400 5025 2400 5625
2 1 0 1 0 7 50 0 -1 4.000 0 0 -1 0 0 2
	 4800 5025 4800 5625
2 1 0 1 0 7 50 0 -1 4.000 0 0 -1 0 0 2
	 6000 3600 6675 3600
2 1 0 1 0 7 50 0 -1 4.000 0 0 -1 0 0 2
	 6075 4800 6750 4800
2 1 0 1 0 7 50 0 -1 4.000 0 0 -1 1 1 2
	1 1 1.00 60.00 120.00
	1 1 1.00 60.00 120.00
	 1200 5400 2400 5400
2 1 0 1 0 7 50 0 -1 4.000 0 0 -1 1 1 2
	1 1 1.00 60.00 120.00
	1 1 1.00 60.00 120.00
	 2400 5400 4800 5400
2 1 0 1 0 7 50 0 -1 4.000 0 0 -1 1 1 2
	1 1 1.00 60.00 120.00
	1 1 1.00 60.00 120.00
	 4800 5400 6000 5400
2 1 0 1 0 7 50 0 -1 4.000 0 0 -1 1 1 2
	1 1 1.00 60.00 120.00
	1 1 1.00 60.00 120.00
	 6525 4800 6525 3600
2 1 1 3 0 7 50 0 -1 8.000 0 0 -1 0 0 2
	 1200 4800 1725 3675
2 1 0 1 0 7 50 0 -1 4.000 0 0 -1 0 0 2
	 4950 3600 5400 3600
2 1 0 1 0 7 50 0 -1 4.000 0 0 -1 0 0 2
	 4875 3150 5400 3150
2 1 0 1 0 7 50 0 -1 4.000 0 0 -1 1 0 2
	1 1 1.00 60.00 120.00
	 5250 3600 5250 3150
2 1 0 2 0 7 50 0 -1 6.000 0 0 -1 1 0 2
	1 1 2.00 120.00 240.00
	 11175 3450 11175 2775
2 1 0 2 0 7 50 0 -1 6.000 0 0 -1 1 0 2
	1 1 2.00 120.00 240.00
	 8325 4800 7725 4800
4 0 0 50 0 0 24 0.0000 4 255 180 1725 5400 5\001
4 0 0 50 0 0 24 0.0000 4 255 360 3450 5400 10\001
4 0 0 50 0 0 24 0.0000 4 255 180 5325 5400 5\001
4 0 0 50 0 0 24 1.5708 4 255 180 6375 4275 5\001
4 0 0 50 0 0 24 0.0000 4 255 540 5400 3450 v=?\001
4 0 0 50 0 0 24 0.0000 4 255 2415 1350 3225 actual load case:\001
4 0 0 50 0 0 24 0.0000 4 255 2460 7200 3225 virtual load case:\001
4 0 0 50 0 0 24 0.0000 4 255 180 11625 3375 1\001
4 0 0 50 0 0 24 5.4978 4 255 810 11175 4200 1.414\001
4 0 0 50 0 0 24 0.0000 4 255 180 9825 4050 1\001
4 0 0 50 0 0 24 0.0000 4 255 810 7275 4200 M =5\001
4 0 0 50 0 0 24 0.0000 4 255 180 8100 4725 1\001
4 0 0 50 0 0 24 0.0000 4 255 255 1500 4950 A\001
4 0 0 50 0 32 24 0.0000 4 270 180 11475 3375 d\001
4 0 0 50 0 32 24 0.0000 4 270 180 7125 4200 d\001
4 0 0 50 0 32 16 0.0000 4 165 180 7575 4275 A\001
