#FIG 3.2  Produced by xfig version 3.2.5
Portrait
Center
Inches
Letter  
100.00
Single
-2
1200 2
6 4725 3300 4950 3900
2 1 0 2 0 7 50 0 -1 0.000 0 0 -1 0 0 2
	 4800 3375 4800 3825
2 1 0 1 0 7 50 0 -1 0.000 0 0 -1 0 0 2
	 4800 3525 4950 3375
2 1 0 1 0 7 50 0 -1 0.000 0 0 -1 0 0 2
	 4800 3675 4950 3525
2 1 0 1 0 7 50 0 -1 0.000 0 0 -1 0 0 2
	 4800 3825 4950 3675
-6
6 7050 3300 7275 3900
2 1 0 2 0 7 50 0 -1 0.000 0 0 -1 0 0 2
	 7200 3375 7200 3825
2 1 0 1 0 7 50 0 -1 0.000 0 0 -1 0 0 2
	 7200 3525 7050 3375
2 1 0 1 0 7 50 0 -1 0.000 0 0 -1 0 0 2
	 7200 3675 7050 3525
2 1 0 1 0 7 50 0 -1 0.000 0 0 -1 0 0 2
	 7200 3825 7050 3675
-6
6 1125 6375 4875 7425
6 1200 6900 4800 6975
2 1 0 1 0 7 50 0 -1 0.000 0 0 -1 0 0 2
	 1200 6900 4800 6900
-6
2 1 0 2 0 7 50 0 -1 0.000 0 0 -1 0 0 3
	 1200 6900 2400 6450 4800 7350
-6
6 7200 2175 10950 3225
6 7275 2700 10875 2775
2 1 0 1 0 7 50 0 -1 0.000 0 0 -1 0 0 2
	 7275 2700 10875 2700
-6
2 1 0 2 0 7 50 0 -1 0.000 0 0 -1 0 0 3
	 7275 2700 8475 2250 10875 3150
-6
1 3 0 1 0 7 50 0 -1 0.000 1 0.0000 3600 3600 75 75 3600 3600 3675 3600
1 3 0 1 0 7 50 0 -1 0.000 1 0.0000 8400 3600 75 75 8400 3600 8475 3600
2 1 0 3 0 7 50 0 -1 0.000 0 0 -1 0 0 2
	 1200 3600 3525 3600
2 1 0 3 0 7 50 0 -1 0.000 0 0 -1 0 0 2
	 3675 3600 4800 3600
2 1 0 3 0 7 50 0 -1 0.000 0 0 -1 0 0 2
	 7200 3600 8325 3600
2 1 0 3 0 7 50 0 -1 0.000 0 0 -1 0 0 2
	 8475 3600 10800 3600
2 3 0 1 0 7 50 0 -1 0.000 0 0 -1 0 0 4
	 2250 3825 2400 3600 2550 3825 2250 3825
2 3 0 1 0 7 50 0 -1 0.000 0 0 -1 0 0 4
	 9450 3825 9600 3600 9750 3825 9450 3825
2 1 0 1 0 7 50 0 -1 0.000 0 0 -1 0 0 2
	 2250 3900 2550 3900
2 1 0 1 0 7 50 0 -1 0.000 0 0 -1 0 0 2
	 9450 3900 9750 3900
2 1 0 2 0 7 50 0 -1 0.000 0 0 -1 1 0 2
	1 1 2.00 120.00 240.00
	 1200 2850 1200 3525
2 1 0 1 0 7 50 0 -1 0.000 0 0 -1 0 0 2
	 1200 3900 1200 4650
2 1 0 1 0 7 50 0 -1 0.000 0 0 -1 0 0 2
	 2400 3975 2400 4650
2 1 0 1 0 7 50 0 -1 0.000 0 0 -1 0 0 2
	 3600 3900 3600 4650
2 1 0 1 0 7 50 0 -1 0.000 0 0 -1 0 0 2
	 4800 3900 4800 4575
2 1 0 1 0 7 50 0 -1 0.000 0 0 -1 1 1 2
	1 1 1.00 60.00 120.00
	1 1 1.00 60.00 120.00
	 1200 4575 2400 4575
2 1 0 1 0 7 50 0 -1 0.000 0 0 -1 1 1 2
	1 1 1.00 60.00 120.00
	1 1 1.00 60.00 120.00
	 2400 4575 3600 4575
2 1 0 1 0 7 50 0 -1 0.000 0 0 -1 1 1 2
	1 1 1.00 60.00 120.00
	1 1 1.00 60.00 120.00
	 3600 4575 4800 4575
2 1 0 1 0 7 50 0 -1 0.000 0 0 -1 0 0 2
	 1200 5625 1200 7725
2 1 0 1 0 7 50 0 -1 0.000 0 0 -1 0 0 2
	 2400 5625 2400 7725
2 1 0 1 0 7 50 0 -1 0.000 0 0 -1 0 0 2
	 3600 5625 3600 7725
2 1 0 1 0 7 50 0 -1 0.000 0 0 -1 0 0 2
	 4800 5625 4800 7725
2 1 0 1 0 7 50 0 -1 0.000 0 0 -1 0 0 2
	 7725 2550 7725 2700
2 1 0 1 0 7 50 0 -1 0.000 0 0 -1 0 0 2
	 8025 2400 8025 2700
2 1 0 1 0 7 50 0 -1 0.000 0 0 -1 0 0 2
	 8325 2325 8325 2700
2 1 0 1 0 7 50 0 -1 0.000 0 0 -1 0 0 2
	 8625 2325 8625 2700
2 1 0 1 0 7 50 0 -1 0.000 0 0 -1 0 0 2
	 8925 2400 8925 2700
2 1 0 1 0 7 50 0 -1 0.000 0 0 -1 0 0 2
	 9225 2550 9225 2700
2 1 0 1 0 7 50 0 -1 0.000 0 0 -1 0 0 2
	 10125 2700 10125 2850
2 1 0 1 0 7 50 0 -1 0.000 0 0 -1 0 0 2
	 10425 2700 10425 3000
2 1 0 1 0 7 50 0 -1 0.000 0 0 -1 0 0 2
	 10650 2700 10650 3075
2 1 0 1 0 7 50 0 -1 0.000 0 0 -1 0 0 2
	 10875 2700 10875 3150
2 1 0 1 0 7 50 0 -1 0.000 0 0 -1 0 0 2
	 7200 5475 7200 9000
2 1 0 1 0 7 50 0 -1 0.000 0 0 -1 0 0 2
	 8400 5400 8400 8925
2 1 0 1 0 7 50 0 -1 0.000 0 0 -1 0 0 2
	 9600 5400 9600 8925
2 1 0 1 0 7 50 0 -1 0.000 0 0 -1 0 0 2
	 10800 5400 10800 8925
2 1 0 1 0 7 50 0 -1 0.000 0 0 -1 0 0 2
	 7200 6675 10800 6675
2 1 0 1 0 7 50 0 -1 0.000 0 0 -1 0 0 2
	 7200 8250 10800 8250
2 1 0 1 0 7 50 -1 -1 0.000 0 0 -1 1 0 2
	1 1 1.00 60.00 120.00
	 9600 3975 9600 4275
3 0 0 2 0 7 50 0 -1 0.000 0 0 0 4
	 7200 5850 7800 5850 9000 6525 9600 6525
	 0.000 1.000 1.000 0.000
3 0 0 2 0 7 50 0 -1 0.000 0 0 0 3
	 9600 7125 10200 7125 10800 6675
	 0.000 1.000 0.000
3 0 0 2 0 7 50 0 -1 0.000 0 0 0 3
	 7200 9000 8400 8100 9600 7950
	 0.000 1.000 0.000
3 0 0 2 0 7 50 0 -1 0.000 0 0 0 3
	 9600 7950 10200 8175 10800 8250
	 0.000 1.000 0.000
4 0 0 50 0 0 24 0.0000 4 270 210 1350 3075 1\001
4 0 0 50 0 0 24 0.0000 4 270 210 1725 4500 1\001
4 0 0 50 0 0 24 0.0000 4 270 210 3000 4500 1\001
4 0 0 50 0 0 24 0.0000 4 270 210 4125 4500 1\001
4 0 0 50 0 0 24 0.0000 4 270 795 975 5025 M=0\001
4 0 0 50 0 0 24 0.0000 4 270 735 975 5445 V=0\001
4 0 0 50 0 0 24 0.0000 4 270 645 2250 5100 v=0\001
4 0 0 50 0 0 24 0.0000 4 270 795 3450 5100 M=0\001
4 0 0 50 0 0 24 0.0000 4 270 645 4650 4950 v=0\001
4 0 0 50 0 0 24 0.0000 4 270 720 4575 5400 v'=0\001
4 0 0 50 0 0 24 0.0000 4 270 645 7050 4950 v=0\001
4 0 0 50 0 0 24 0.0000 4 270 720 7050 5370 v'=0\001
4 0 0 50 0 0 24 0.0000 4 270 795 8325 4950 M=0\001
4 0 0 50 0 0 24 0.0000 4 270 645 9450 4950 v=0\001
4 0 0 50 0 0 24 0.0000 4 270 795 10500 4950 M=0\001
4 0 0 50 0 0 24 0.0000 4 270 735 10500 5370 V=0\001
4 0 0 50 0 0 24 0.0000 4 345 960 1425 6375 M(x):\001
4 0 0 50 0 0 24 0.0000 4 270 210 2700 6450 1\001
4 0 0 50 0 0 24 0.0000 4 345 1650 8775 2325 M(x)/(EJ)\001
4 0 0 50 0 0 24 0.0000 4 270 210 8175 2325 1\001
4 0 0 50 0 0 24 0.0000 4 345 900 6300 6375 V(x):\001
4 0 0 50 0 0 24 0.0000 4 270 540 6675 5925 7/6\001
4 0 0 50 0 0 24 0.0000 4 270 540 9675 6600 1/6\001
4 0 0 50 0 0 24 0.0000 4 270 540 9075 7275 1/2\001
4 0 0 50 0 0 24 0.0000 4 345 1755 6375 7800 M(x)=v(x)\001
4 0 0 50 0 0 24 0.0000 4 270 525 6525 8775 1.0\001
4 0 0 50 0 0 24 0.0000 4 270 1680 2250 3150 ACTUAL\001
4 0 0 50 0 0 24 0.0000 4 270 1290 5475 3150 BEAM \001
4 0 0 50 0 0 24 0.0000 4 270 2445 7725 3225 CONJUGATE\001
4 0 0 50 0 0 24 0.0000 4 270 870 9750 8025 -0.33\001
4 0 0 50 0 0 24 0.0000 4 270 735 9675 4275 0.66\001
