#FIG 3.2
Landscape
Center
Metric
Letter  
100.00
Single
-2
1200 2
2 3 0 3 0 7 50 0 -1 0.000 0 0 -1 0 0 5
	 3240 2655 2295 3465 4500 3465 5355 2655 3240 2655
2 1 0 3 0 7 50 0 -1 0.000 0 0 -1 0 0 4
	 2295 3465 2295 5355 4500 5355 4500 3420
2 1 0 3 0 7 50 0 -1 0.000 0 0 -1 0 0 3
	 4500 5355 5355 4455 5355 2655
2 1 1 1 0 7 50 0 -1 4.000 0 0 -1 0 0 3
	 3240 2655 3240 4500 2295 5355
2 1 1 1 0 7 50 0 -1 4.000 0 0 -1 0 0 2
	 3240 4500 5355 4500
2 1 0 1 0 7 50 0 -1 4.000 0 0 -1 0 0 2
	 2295 5445 2295 6075
2 1 0 1 0 7 50 0 -1 4.000 0 0 -1 0 0 2
	 4500 5445 4500 6075
2 1 0 1 0 7 50 0 -1 4.000 0 0 -1 0 0 2
	 5355 4545 5355 5175
2 1 0 1 0 7 50 0 -1 4.000 0 0 -1 0 0 2
	 5490 2655 6030 2655
2 1 0 1 0 7 50 0 -1 4.000 0 0 -1 0 0 2
	 5490 4455 6030 4455
2 1 0 1 0 7 50 0 -1 4.000 0 0 -1 1 1 2
	1 1 1.00 60.00 120.00
	1 1 1.00 60.00 120.00
	 4500 5985 5355 5085
2 1 0 1 0 7 50 0 -1 4.000 0 0 -1 1 1 2
	1 1 1.00 60.00 120.00
	1 1 1.00 60.00 120.00
	 2340 5985 4500 5985
2 1 0 3 0 7 50 0 -1 8.000 0 0 -1 1 0 2
	1 1 3.00 180.00 360.00
	 4995 3960 6525 3960
2 1 0 3 0 7 50 0 -1 8.000 0 0 -1 1 0 2
	1 1 3.00 180.00 360.00
	 2250 3960 1485 3960
2 3 1 3 0 7 50 0 -1 8.000 0 0 -1 0 0 5
	 4680 5355 4680 3465 5535 2655 5535 4455 4680 5355
2 1 1 3 0 7 50 0 -1 8.000 0 0 -1 0 0 2
	 4545 3465 4725 3465
2 1 1 3 0 7 50 0 -1 8.000 0 0 -1 0 0 2
	 5355 2700 5535 2655
2 1 1 3 0 7 50 0 -1 8.000 0 0 -1 0 0 2
	 5400 4455 5535 4455
2 1 1 3 0 7 50 0 -1 8.000 0 0 -1 0 0 2
	 4500 5355 4680 5355
2 1 0 1 0 7 50 0 -1 4.000 0 0 -1 0 0 2
	 4680 5445 4680 6075
2 1 0 1 0 7 50 0 -1 4.000 0 0 -1 0 1 2
	1 1 1.00 60.00 120.00
	 4680 5985 5130 5985
2 1 0 1 0 7 50 0 -1 4.000 0 0 -1 1 1 2
	1 1 1.00 60.00 120.00
	1 1 1.00 60.00 120.00
	 5895 2655 5895 4455
4 0 0 50 0 0 24 0.0000 4 255 375 3195 5895 dx\001
4 0 0 50 0 0 24 0.0000 4 255 375 4995 5940 du\001
4 0 0 50 0 0 24 1.5708 4 255 330 5850 3735 dz\001
4 0 0 50 0 0 24 0.7854 4 330 345 4950 5445 dy\001
4 0 0 50 0 0 24 0.0000 4 330 1500 6075 3825 F=   dx dy\001
4 0 0 50 0 32 24 0.0000 4 195 225 6525 3825 s\001
4 0 0 50 0 0 24 0.0000 4 255 210 1755 3780 F\001
