#FIG 3.2
Landscape
Center
Inches
Letter  
100.00
Single
-2
1200 2
6 9375 1875 9825 2175
4 0 0 100 0 0 24 0.0000 4 255 240 9525 2175 C\001
4 0 0 100 0 0 16 0.0000 4 120 120 9375 2025 o\001
-6
6 10050 3225 11325 5025
6 10650 3225 11100 3525
4 0 0 100 0 0 24 0.0000 4 255 240 10800 3525 C\001
4 0 0 100 0 0 16 0.0000 4 120 120 10650 3375 o\001
-6
6 10725 4725 11175 5025
4 0 0 100 0 0 24 0.0000 4 255 240 10875 5025 C\001
4 0 0 100 0 0 16 0.0000 4 120 120 10725 4875 o\001
-6
2 2 0 3 0 7 100 0 -1 8.000 0 0 -1 0 0 5
	 10125 3600 10650 3600 10650 4575 10125 4575 10125 3600
2 1 0 1 0 7 100 0 -1 4.000 0 0 -1 0 0 2
	 10800 3600 11325 3600
2 1 0 1 0 7 100 0 -1 4.000 0 0 -1 0 0 2
	 10800 4575 11325 4575
2 1 0 1 0 7 100 0 -1 4.000 0 0 -1 1 1 2
	1 1 1.00 60.00 120.00
	1 1 1.00 60.00 120.00
	 11250 4575 11250 3600
4 0 0 100 0 0 24 0.0000 4 255 570 10050 3525 +10\001
4 0 0 100 0 0 24 0.0000 4 255 570 10125 5025 -10\001
4 0 0 100 0 0 24 1.5708 4 255 195 11175 4200 h\001
-6
6 7050 2400 7350 2700
2 3 0 1 0 7 100 0 -1 4.000 0 0 -1 0 0 4
	 7050 2625 7200 2400 7350 2625 7050 2625
2 1 0 1 0 7 100 0 -1 4.000 0 0 -1 0 0 2
	 7050 2700 7350 2700
-6
6 7050 4275 7350 4575
2 3 0 1 0 7 100 0 -1 4.000 0 0 -1 0 0 4
	 7050 4500 7200 4275 7350 4500 7050 4500
2 1 0 1 0 7 100 0 -1 4.000 0 0 -1 0 0 2
	 7050 4575 7350 4575
-6
2 1 0 3 0 7 100 0 -1 8.000 0 0 -1 0 0 2
	 4800 2400 9600 2400
2 3 0 1 0 7 100 0 -1 4.000 0 0 -1 0 0 4
	 4650 2625 4800 2400 4950 2625 4650 2625
2 1 0 1 0 7 100 0 -1 4.000 0 0 -1 0 0 2
	 4800 2775 4800 5775
2 1 0 1 0 7 100 0 -1 4.000 0 0 -1 0 0 2
	 9600 2775 9600 5700
2 1 0 1 0 7 100 0 -1 4.000 0 0 -1 0 0 2
	 7200 2775 7200 5775
2 1 0 1 0 7 100 0 -1 4.000 0 0 -1 1 1 2
	1 1 1.00 60.00 120.00
	1 1 1.00 60.00 120.00
	 4800 3075 7200 3075
2 1 0 1 0 7 100 0 -1 4.000 0 0 -1 1 1 2
	1 1 1.00 60.00 120.00
	1 1 1.00 60.00 120.00
	 7200 3075 9600 3075
2 1 0 1 0 7 100 0 -1 4.000 0 0 -1 0 1 3
	1 1 1.00 60.00 120.00
	 8400 2400 8400 1875 8400 1800
2 1 0 1 0 7 100 0 -1 4.000 0 0 -1 0 1 2
	1 1 1.00 60.00 120.00
	 8400 2400 8400 2925
2 1 0 1 0 7 100 0 -1 4.000 0 0 -1 0 0 3
	 9600 2775 10050 2775 9975 2775
2 1 0 1 0 7 100 0 -1 4.000 0 0 -1 0 0 3
	 9600 2400 10050 2400 9975 2400
2 1 0 1 0 7 100 0 -1 4.000 0 0 -1 1 0 2
	1 1 1.00 60.00 120.00
	 9900 2400 9900 2775
2 1 0 3 0 7 100 0 -1 8.000 0 0 -1 0 0 2
	 4800 4275 9600 4275
2 3 0 1 0 7 100 0 -1 4.000 0 0 -1 0 0 4
	 4633 4512 4783 4287 4933 4512 4633 4512
2 1 0 2 0 7 100 0 -1 6.000 0 0 -1 1 0 2
	1 1 2.00 120.00 240.00
	 9600 3450 9600 4275
2 1 0 1 0 7 100 0 -1 0.000 0 0 -1 0 0 2
	 4800 5625 9600 5625
2 1 0 2 0 7 100 0 -1 6.000 0 0 -1 0 0 3
	 4800 5625 7200 5025 9600 5625
4 0 0 100 0 0 24 0.0000 4 255 90 5850 3000 l\001
4 0 0 100 0 0 24 0.0000 4 255 90 8625 3000 l\001
4 0 0 100 0 32 24 0.0000 4 255 225 8475 2175 D\001
4 0 0 100 0 0 24 0.0000 4 255 675 8700 2175 t=20\001
4 0 0 100 0 0 24 0.0000 4 255 540 10050 2700 v=?\001
4 0 0 100 0 0 24 0.0000 4 255 2025 9750 3150 cross-section\001
4 0 0 100 0 0 24 0.0000 4 255 180 9375 3900 1\001
4 0 0 100 0 0 24 0.0000 4 255 2460 5175 3975 virtual load case:\001
4 0 0 100 0 0 24 0.0000 4 330 855 5475 5100 M(x):\001
4 0 0 100 0 0 24 0.0000 4 255 90 7650 5100 l\001
4 0 0 100 0 32 24 0.0000 4 270 180 5325 5100 d\001
4 0 0 100 0 32 24 0.0000 4 270 180 9225 3900 d\001
