#FIG 3.2
Landscape
Center
Inches
Letter  
100.00
Single
-2
1200 2
2 1 0 3 0 7 50 0 -1 8.000 0 0 -1 0 0 2
	 1200 3900 4800 3900
2 3 0 1 0 7 50 0 -1 4.000 0 0 -1 0 0 4
	 1125 4050 1200 3900 1275 4050 1125 4050
2 3 0 1 0 7 50 0 -1 4.000 0 0 -1 0 0 4
	 4725 4050 4800 3900 4875 4050 4725 4050
2 1 0 1 0 7 50 0 -1 4.000 0 0 -1 0 0 2
	 4725 4125 4875 4125
2 1 0 1 0 7 50 0 -1 4.000 0 0 -1 0 0 2
	 1500 3600 1500 3900
2 1 0 1 0 7 50 0 -1 4.000 0 0 -1 0 0 2
	 1800 3600 1800 3900
2 1 0 1 0 7 50 0 -1 4.000 0 0 -1 0 0 2
	 2100 3600 2100 3900
2 1 0 1 0 7 50 0 -1 4.000 0 0 -1 0 0 2
	 2400 3600 2400 3900
2 1 0 1 0 7 50 0 -1 4.000 0 0 -1 0 0 2
	 2700 3600 2700 3900
2 1 0 1 0 7 50 0 -1 4.000 0 0 -1 0 0 2
	 3000 3600 3000 3900
2 1 0 1 0 7 50 0 -1 4.000 0 0 -1 0 0 2
	 3300 3600 3300 3900
2 1 0 1 0 7 50 0 -1 4.000 0 0 -1 0 0 2
	 3600 3600 3600 3900
2 1 0 1 0 7 50 0 -1 4.000 0 0 -1 0 0 2
	 3900 3600 3900 3900
2 1 0 1 0 7 50 0 -1 4.000 0 0 -1 0 0 2
	 4200 3600 4200 3900
2 1 0 1 0 7 50 0 -1 4.000 0 0 -1 0 0 2
	 4500 3600 4500 3900
2 1 0 1 0 7 50 0 -1 4.000 0 0 -1 1 1 4
	1 1 1.00 60.00 120.00
	1 1 1.00 60.00 120.00
	 1200 3900 1200 3600 4800 3600 4800 3900
2 1 0 1 0 7 50 0 -1 4.000 0 0 -1 0 0 3
	 2550 3600 2850 3225 3300 3225
2 1 0 1 0 7 50 0 -1 4.000 0 0 -1 0 0 2
	 1200 4125 1200 5250
2 1 0 1 0 7 50 0 -1 4.000 0 0 -1 0 0 2
	 4800 4200 4800 5250
2 1 0 1 0 7 50 0 -1 4.000 0 0 -1 1 1 2
	1 1 1.00 60.00 120.00
	1 1 1.00 60.00 120.00
	 1200 5175 4800 5175
2 1 0 1 0 7 50 0 -1 4.000 0 0 -1 0 0 2
	 2250 4125 2250 4725
2 1 0 1 0 7 50 0 -1 4.000 0 0 -1 1 0 2
	1 1 1.00 60.00 120.00
	 1200 4575 2250 4575
2 1 0 2 0 7 50 0 -1 6.000 0 0 -1 1 0 2
	1 1 2.00 120.00 240.00
	 1200 4725 1200 4125
4 0 0 50 0 0 24 0.0000 4 180 195 1575 4500 x\001
4 0 0 50 0 0 24 0.0000 4 255 90 2925 5100 l\001
4 0 0 50 0 0 24 0.0000 4 255 105 3000 3150 f\001
4 0 0 50 0 0 24 0.0000 4 255 255 1275 4950 A\001
