#FIG 3.2
Landscape
Center
Inches
Letter  
100.00
Single
-2
1200 2
6 2025 3300 2625 3825
2 1 0 1 0 7 50 0 -1 0.000 0 0 -1 0 0 2
	 2157 3370 2581 3794
2 1 0 1 0 7 50 0 -1 0.000 0 0 -1 0 0 2
	 2263 3476 2051 3476
2 1 0 1 0 7 50 0 -1 0.000 0 0 -1 0 0 2
	 2369 3582 2157 3582
2 1 0 1 0 7 50 0 -1 0.000 0 0 -1 0 0 2
	 2475 3688 2263 3688
2 1 0 1 0 7 50 0 -1 0.000 0 0 -1 0 0 2
	 2581 3794 2369 3794
-6
1 4 0 1 0 7 50 0 -1 0.000 1 0.0000 4687 2025 263 263 4425 2025 4950 2025
1 4 0 1 0 7 50 0 -1 0.000 1 0.0000 2437 2100 263 263 2175 2100 2700 2100
1 4 0 1 0 7 50 0 -1 0.000 1 0.0000 2587 2850 263 263 2325 2850 2850 2850
2 1 0 3 0 7 100 0 -1 0.000 0 0 -1 0 0 2
	 1200 2400 6000 2400
2 1 0 3 0 7 100 0 -1 0.000 0 0 -1 0 0 2
	 3600 2400 2400 3600
2 3 0 1 0 7 50 0 -1 0.000 0 0 -1 0 0 4
	 1050 2625 1200 2400 1350 2625 1050 2625
2 3 0 1 0 7 50 0 -1 0.000 0 0 -1 0 0 4
	 6225 2550 6000 2400 6225 2250 6225 2550
2 1 0 1 0 7 50 0 -1 0.000 0 0 -1 0 0 2
	 6300 2550 6300 2250
4 0 0 100 0 0 24 0.0000 4 255 180 3675 2775 3\001
4 0 0 100 0 0 24 0.0000 4 255 180 5850 2775 4\001
4 0 0 50 0 0 32 0.0000 4 330 225 4575 2175 3\001
4 0 0 50 0 0 32 0.0000 4 330 225 2325 2250 2\001
4 0 0 50 0 0 32 0.7854 4 330 225 2625 3075 1\001
4 0 0 100 0 0 24 0.0000 4 255 180 1500 2775 2\001
4 0 0 100 0 0 24 0.0000 4 255 180 2625 3750 1\001
