#FIG 3.2
Landscape
Center
Inches
Letter  
100.00
Single
-2
1200 2
5 1 0 1 0 7 100 0 -1 0.000 0 0 1 0 2686.184 2530.263 3750 2625 3075 3525 1875 3225
	1 1 1.00 60.00 120.00
6 4050 2700 4500 3150
4 0 0 100 0 1 32 0.0000 4 210 210 4050 2925 x\001
4 0 0 100 0 1 26 0.0000 4 270 195 4275 3000 g\001
-6
2 1 0 3 0 7 100 0 -1 0.000 0 0 -1 0 0 3
	 1200 3600 3600 1800 5925 3600
2 3 0 1 0 7 100 0 -1 0.000 0 0 -1 0 0 4
	 5775 3825 5925 3600 6075 3825 5775 3825
2 3 0 1 0 7 100 0 -1 0.000 0 0 -1 0 0 4
	 1050 3825 1200 3600 1350 3825 1050 3825
2 1 0 1 0 7 100 0 -1 0.000 0 0 -1 0 0 2
	 1200 3900 1200 4500
2 1 0 1 0 7 100 0 -1 0.000 0 0 -1 0 0 2
	 3600 3900 3600 4500
2 1 0 1 0 7 100 0 -1 0.000 0 0 -1 0 0 2
	 5925 3900 5925 4500
2 1 0 1 0 7 100 0 -1 0.000 0 0 -1 0 0 2
	 5925 1800 6600 1800
2 1 0 1 0 7 100 0 -1 0.000 0 0 -1 0 0 2
	 6075 3600 6675 3600
2 1 0 1 0 7 100 0 -1 0.000 0 0 -1 1 1 2
	1 1 1.00 60.00 120.00
	1 1 1.00 60.00 120.00
	 1200 4425 3600 4425
2 1 0 1 0 7 100 0 -1 0.000 0 0 -1 1 1 2
	1 1 1.00 60.00 120.00
	1 1 1.00 60.00 120.00
	 3600 4425 5925 4425
2 1 0 1 0 7 100 0 -1 0.000 0 0 -1 1 1 2
	1 1 1.00 60.00 120.00
	1 1 1.00 60.00 120.00
	 6525 3600 6525 1800
2 1 0 2 0 7 100 0 -1 0.000 0 0 -1 1 0 2
	1 1 1.00 60.00 120.00
	 2325 1800 3525 1800
2 1 0 1 0 7 100 0 -1 0.000 0 0 -1 1 0 2
	1 1 1.00 60.00 120.00
	 2727 2586 1527 3486
2 1 0 1 0 7 100 0 -1 0.000 0 0 -1 1 0 2
	1 1 1.00 60.00 120.00
	 2700 2625 4200 2625
4 0 0 100 0 0 32 0.0000 4 330 225 2250 4350 2\001
4 0 0 100 0 0 32 0.0000 4 330 225 4725 4350 2\001
4 0 0 100 0 0 32 1.5708 4 330 570 6450 3000 1.5\001
4 0 0 100 0 0 32 0.0000 4 330 225 2775 1725 1\001
4 0 0 100 0 1 32 0.0000 4 330 225 1050 3525 1\001
4 0 0 100 0 1 32 0.0000 4 330 225 5925 3525 2\001
4 0 0 100 0 1 32 0.0000 4 330 225 3825 1875 3\001
4 0 0 100 0 1 32 0.0000 4 210 210 1800 3600 x\001
4 0 0 100 0 1 26 0.0000 4 270 90 2025 3750 l\001
4 0 0 100 0 32 32 0.0000 4 255 315 2550 3225 a\001
4 0 0 100 0 1 26 0.0000 4 330 480 2850 3375 3,1\001
