#FIG 3.2
Landscape
Center
Metric
A4      
100.00
Single
-2
1200 2
6 2160 1800 2430 2070
2 3 0 1 0 7 50 0 -1 0.000 0 0 -1 0 0 4
	 2160 2025 2295 1800 2430 2025 2160 2025
2 1 0 1 0 7 50 0 -1 0.000 0 0 -1 0 0 2
	 2160 2070 2430 2070
-6
2 1 0 3 0 7 50 0 -1 0.000 0 0 -1 0 0 2
	 900 1800 3600 1800
2 1 0 2 0 7 50 0 -1 0.000 0 0 -1 0 0 2
	 900 1485 900 2115
2 1 0 1 0 7 50 0 -1 0.000 0 0 -1 0 0 2
	 720 1620 900 1485
2 1 0 1 0 7 50 0 -1 0.000 0 0 -1 0 0 2
	 720 1755 900 1620
2 1 0 1 0 7 50 0 -1 0.000 0 0 -1 0 0 2
	 720 1890 900 1755
2 1 0 1 0 7 50 0 -1 0.000 0 0 -1 0 0 2
	 720 2025 900 1890
2 1 0 2 0 7 50 0 -1 0.000 0 0 -1 1 0 2
	1 1 2.00 120.00 240.00
	 3600 1305 3600 1800
