#FIG 3.2
Landscape
Center
Inches
Letter  
100.00
Single
-2
1200 2
5 1 0 1 0 7 50 0 -1 4.000 0 0 1 0 3712.500 1725.000 4950 1575 4950 1875 4875 2175
	1 1 1.00 60.00 120.00
5 1 0 2 0 7 50 0 -1 6.000 0 1 1 0 1379.605 1576.974 1650 1200 1275 1125 975 1350
	1 1 2.00 120.00 240.00
6 6000 1575 6300 1875
2 3 0 1 0 7 50 0 -1 4.000 0 0 -1 0 0 4
	 6000 1800 6150 1575 6300 1800 6000 1800
2 1 0 1 0 7 50 0 -1 4.000 0 0 -1 0 0 2
	 6000 1875 6300 1875
-6
2 1 0 3 0 7 50 0 -1 8.000 0 0 -1 0 0 2
	 1350 1575 6150 1575
2 3 0 1 0 7 50 0 -1 4.000 0 0 -1 0 0 4
	 1200 1800 1350 1575 1500 1800 1200 1800
2 1 1 3 0 7 50 0 -1 8.000 0 0 -1 0 0 2
	 1350 1575 6225 2400
2 1 0 1 0 7 50 0 -1 4.000 0 0 -1 0 0 2
	 6300 1575 6975 1575
2 1 0 1 0 7 50 0 -1 4.000 0 0 -1 0 0 2
	 6300 2400 6975 2400
2 1 0 1 0 7 50 0 -1 4.000 0 0 -1 1 0 2
	1 1 1.00 60.00 120.00
	 6825 1575 6825 2400
4 0 0 50 0 1 32 1.5708 4 210 180 6750 2100 s\001
4 0 0 50 0 0 24 0.0000 4 255 270 1200 1500 X\001
4 0 0 50 0 32 32 0.0000 4 330 540 4125 1950 -D\001
4 0 0 50 0 1 24 0.0000 4 165 135 4725 2100 s\001
