#FIG 3.2  Produced by xfig version 3.2.5b
Landscape
Center
Metric
A4      
100.00
Single
-2
1200 2
5 1 0 1 0 7 50 -1 -1 4.000 0 1 1 0 1137.717 -159.457 1170 -405 945 -315 900 -90
	1 1 1.00 60.00 120.00
5 1 0 1 0 7 50 -1 -1 4.000 0 0 1 0 1597.500 -157.500 1530 -405 1800 -315 1845 -90
	1 1 1.00 60.00 120.00
5 1 0 1 0 7 50 -1 -1 4.000 0 0 1 0 9427.500 1687.500 9360 1440 9630 1530 9675 1755
	1 1 1.00 60.00 120.00
5 1 0 1 0 7 50 -1 -1 4.000 0 1 1 0 6447.717 1685.543 6480 1440 6255 1530 6210 1755
	1 1 1.00 60.00 120.00
5 1 0 1 0 7 50 -1 -1 4.000 0 1 1 0 7842.717 -159.457 7875 -405 7650 -315 7605 -90
	1 1 1.00 60.00 120.00
5 1 0 1 0 7 50 -1 -1 4.000 0 0 1 0 8167.500 -157.500 8100 -405 8370 -315 8415 -90
	1 1 1.00 60.00 120.00
5 1 0 1 0 7 50 -1 -1 4.000 0 1 1 0 -212.283 3215.543 -180 2970 -405 3060 -450 3285
	1 1 1.00 60.00 120.00
5 1 0 1 0 7 50 -1 -1 4.000 0 0 1 0 2902.500 3217.500 2835 2970 3105 3060 3150 3285
	1 1 1.00 60.00 120.00
5 1 0 1 0 7 50 -1 -1 4.000 0 0 1 0 337.500 2723.000 90 2790 180 2520 405 2475
	1 1 1.00 60.00 120.00
5 1 0 1 0 7 50 -1 -1 4.000 0 1 1 0 2364.457 2758.000 2610 2790 2520 2565 2295 2520
	1 1 1.00 60.00 120.00
5 1 0 1 0 7 50 -1 -1 4.000 0 0 1 0 1732.500 2768.000 1485 2835 1575 2565 1800 2520
	1 1 1.00 60.00 120.00
5 1 0 1 0 7 50 -1 -1 4.000 0 1 1 0 1059.457 2758.000 1305 2790 1215 2565 990 2520
	1 1 1.00 60.00 120.00
5 1 0 1 0 7 50 -1 -1 4.000 0 1 1 0 6357.717 3170.543 6390 2925 6165 3015 6120 3240
	1 1 1.00 60.00 120.00
5 1 0 1 0 7 50 -1 -1 4.000 0 0 1 0 6907.500 2588.000 6660 2655 6750 2385 6975 2340
	1 1 1.00 60.00 120.00
5 1 0 1 0 7 50 -1 -1 4.000 0 1 1 0 8979.457 2713.000 9225 2745 9135 2520 8910 2475
	1 1 1.00 60.00 120.00
5 1 0 1 0 7 50 -1 -1 4.000 0 0 1 0 9472.500 3127.500 9405 2880 9675 2970 9720 3195
	1 1 1.00 60.00 120.00
6 900 225 1215 495
4 0 0 50 -1 0 16 0.0000 4 180 195 900 405 X\001
4 0 0 50 -1 0 12 0.0000 4 135 105 1080 495 1\001
-6
6 1755 180 2070 450
4 0 0 50 -1 0 16 0.0000 4 180 195 1755 360 X\001
4 0 0 50 -1 0 12 0.0000 4 135 105 1935 450 1\001
-6
6 1440 450 1800 720
4 0 0 50 -1 0 16 0.0000 4 180 195 1440 630 X\001
4 0 0 50 -1 0 12 0.0000 4 135 105 1665 720 2\001
-6
6 1305 -315 1665 -45
4 0 0 50 -1 0 16 0.0000 4 180 195 1305 -135 X\001
4 0 0 50 -1 0 12 0.0000 4 135 105 1530 -45 2\001
-6
6 1755 -540 2115 -225
4 0 0 50 -1 0 16 0.0000 4 180 195 1755 -360 X\001
4 0 0 50 -1 0 12 0.0000 4 135 105 1980 -225 3\001
-6
6 495 -405 855 -90
4 0 0 50 -1 0 16 0.0000 4 180 195 495 -225 X\001
4 0 0 50 -1 0 12 0.0000 4 135 105 720 -90 3\001
-6
6 3105 45 3420 315
4 0 0 50 -1 0 16 0.0000 4 180 195 3105 225 X\001
4 0 0 50 -1 0 12 0.0000 4 135 105 3285 315 1\001
-6
6 3600 45 3960 360
4 0 0 50 -1 0 16 0.0000 4 180 195 3600 225 X\001
4 0 0 50 -1 0 12 0.0000 4 135 105 3825 360 3\001
-6
6 5985 1260 6300 1530
4 0 0 50 -1 0 16 0.0000 4 180 195 5985 1440 X\001
4 0 0 50 -1 0 12 0.0000 4 135 105 6165 1530 1\001
-6
6 9630 1350 9990 1620
4 0 0 50 -1 0 16 0.0000 4 180 195 9630 1530 X\001
4 0 0 50 -1 0 12 0.0000 4 135 105 9855 1620 2\001
-6
6 8280 -585 8640 -270
4 0 0 50 -1 0 16 0.0000 4 180 195 8280 -405 X\001
4 0 0 50 -1 0 12 0.0000 4 135 105 8505 -270 3\001
-6
6 7200 -405 7560 -90
4 0 0 50 -1 0 16 0.0000 4 180 195 7200 -225 X\001
4 0 0 50 -1 0 12 0.0000 4 135 105 7425 -90 3\001
-6
6 -135 2250 180 2520
4 0 0 50 -1 0 16 0.0000 4 180 195 -135 2430 X\001
4 0 0 50 -1 0 12 0.0000 4 135 105 45 2520 1\001
-6
6 -450 3285 -135 3555
4 0 0 50 -1 0 16 0.0000 4 180 195 -450 3465 X\001
4 0 0 50 -1 0 12 0.0000 4 135 105 -270 3555 1\001
-6
6 2790 3240 3150 3510
4 0 0 50 -1 0 16 0.0000 4 180 195 2790 3420 X\001
4 0 0 50 -1 0 12 0.0000 4 135 105 3015 3510 2\001
-6
6 2565 2340 2925 2610
4 0 0 50 -1 0 16 0.0000 4 180 195 2565 2520 X\001
4 0 0 50 -1 0 12 0.0000 4 135 105 2790 2610 2\001
-6
6 1710 2565 2070 2880
4 0 0 50 -1 0 16 0.0000 4 180 195 1710 2745 X\001
4 0 0 50 -1 0 12 0.0000 4 135 105 1935 2880 3\001
-6
6 675 2565 1035 2880
4 0 0 50 -1 0 16 0.0000 4 180 195 675 2745 X\001
4 0 0 50 -1 0 12 0.0000 4 135 105 900 2880 3\001
-6
6 6300 2295 6615 2565
4 0 0 50 -1 0 16 0.0000 4 180 195 6300 2475 X\001
4 0 0 50 -1 0 12 0.0000 4 135 105 6480 2565 1\001
-6
6 6165 3105 6480 3375
4 0 0 50 -1 0 16 0.0000 4 180 195 6165 3285 X\001
4 0 0 50 -1 0 12 0.0000 4 135 105 6345 3375 1\001
-6
6 9315 3105 9675 3375
4 0 0 50 -1 0 16 0.0000 4 180 195 9315 3285 X\001
4 0 0 50 -1 0 12 0.0000 4 135 105 9540 3375 2\001
-6
6 8595 2475 8955 2745
4 0 0 50 -1 0 16 0.0000 4 180 195 8595 2655 X\001
4 0 0 50 -1 0 12 0.0000 4 135 105 8820 2745 2\001
-6
6 7725 2730 8220 2955
2 1 0 2 0 7 50 -1 -1 6.000 0 0 -1 0 0 2
	 7770 2775 8175 2775
2 1 0 2 0 7 50 -1 -1 6.000 0 0 -1 0 0 2
	 7770 2910 8175 2910
-6
6 7440 3075 7800 3390
4 0 0 50 -1 0 16 0.0000 4 180 195 7440 3255 X\001
4 0 0 50 -1 0 12 0.0000 4 135 105 7665 3390 3\001
-6
6 9840 2820 10200 3135
4 0 0 50 -1 0 16 0.0000 4 180 195 9840 3000 X\001
4 0 0 50 -1 0 12 0.0000 4 135 105 10065 3135 3\001
-6
6 9540 0 9900 315
4 0 0 50 -1 0 16 0.0000 4 180 195 9540 180 X\001
4 0 0 50 -1 0 12 0.0000 4 135 105 9765 315 3\001
-6
6 10485 0 11475 270
6 10485 0 10845 270
4 0 0 50 -1 0 16 0.0000 4 180 195 10485 180 X\001
4 0 0 50 -1 0 12 0.0000 4 135 105 10710 270 2\001
-6
6 11160 0 11475 270
4 0 0 50 -1 0 16 0.0000 4 180 195 11160 180 X\001
4 0 0 50 -1 0 12 0.0000 4 135 105 11340 270 1\001
-6
4 0 0 50 -1 0 12 0.0000 4 60 105 10800 135 =\001
4 0 0 50 -1 0 16 0.0000 4 15 90 11025 135 -\001
-6
6 9840 3180 10830 3450
6 9840 3180 10200 3450
4 0 0 50 -1 0 16 0.0000 4 180 195 9840 3360 X\001
4 0 0 50 -1 0 12 0.0000 4 135 105 10065 3450 2\001
-6
6 10515 3180 10830 3450
4 0 0 50 -1 0 16 0.0000 4 180 195 10515 3360 X\001
4 0 0 50 -1 0 12 0.0000 4 135 105 10695 3450 1\001
-6
4 0 0 50 -1 0 12 0.0000 4 60 105 10155 3315 =\001
4 0 0 50 -1 0 16 0.0000 4 15 90 10380 3315 -\001
-6
1 4 0 2 0 7 50 -1 -1 6.000 1 0.0000 7965 0 64 64 7920 45 8010 -45
1 4 0 2 0 7 50 -1 -1 6.000 1 0.0000 6615 1710 64 64 6570 1755 6660 1665
1 4 0 2 0 7 50 -1 -1 6.000 1 0.0000 9315 1710 64 64 9270 1755 9360 1665
1 4 0 2 0 7 50 -1 -1 6.000 1 0.0000 1350 2925 64 64 1305 2970 1395 2880
1 4 0 2 0 7 50 -1 -1 6.000 1 0.0000 2655 2925 64 64 2610 2970 2700 2880
1 4 0 2 0 7 50 -1 -1 6.000 1 0.0000 0 2925 64 64 -45 2970 45 2880
1 4 0 2 0 7 50 -1 -1 6.000 1 0.0000 6615 2835 64 64 6570 2880 6660 2790
1 4 0 2 0 7 50 -1 -1 6.000 1 0.0000 9270 2835 64 64 9225 2880 9315 2790
2 1 0 2 0 7 50 -1 -1 6.000 0 0 -1 0 0 2
	 -135 1800 180 1800
2 1 0 2 0 7 50 -1 -1 6.000 0 0 -1 0 0 2
	 2565 1800 2835 1800
2 1 0 2 0 7 50 -1 -1 6.000 0 0 -1 0 0 3
	 0 1800 0 0 1260 0
2 1 0 2 0 7 50 -1 -1 6.000 0 0 -1 0 0 3
	 1485 0 2700 0 2700 1800
2 1 0 1 0 7 50 -1 -1 4.000 0 0 -1 1 0 2
	1 1 1.00 60.00 120.00
	 855 135 1260 135
2 1 0 1 0 7 50 -1 -1 4.000 0 0 -1 1 0 2
	1 1 1.00 60.00 120.00
	 1890 135 1485 135
2 1 0 1 0 7 50 -1 -1 4.000 0 0 -1 1 0 2
	1 1 1.00 60.00 120.00
	 1260 -45 1260 -405
2 1 0 1 0 7 50 -1 -1 4.000 0 0 -1 1 0 2
	1 1 1.00 60.00 120.00
	 1530 90 1530 450
2 1 0 2 0 7 50 -1 -1 6.000 0 0 -1 0 0 3
	 6615 1800 6615 0 7875 0
2 1 0 2 0 7 50 -1 -1 6.000 0 0 -1 0 0 2
	 6390 1800 6705 1800
2 1 0 2 0 7 50 -1 -1 6.000 0 0 -1 0 0 3
	 8100 0 9315 0 9315 1800
2 1 0 2 0 7 50 -1 -1 6.000 0 0 -1 0 0 2
	 9180 1800 9450 1800
2 1 0 2 0 7 50 -1 -1 6.000 0 0 -1 0 0 3
	 0 4725 0 2925 1260 2925
2 1 0 2 0 7 50 -1 -1 6.000 0 0 -1 0 0 2
	 -180 4725 135 4725
2 1 0 2 0 7 50 -1 -1 6.000 0 0 -1 0 0 3
	 1440 2925 2655 2925 2655 4725
2 1 0 2 0 7 50 -1 -1 6.000 0 0 -1 0 0 2
	 2475 4725 2790 4725
2 1 1 2 0 7 50 -1 -1 6.000 0 0 -1 0 0 2
	 -405 4770 3150 2700
2 1 0 2 0 7 50 -1 -1 6.000 0 0 -1 0 0 3
	 6615 4635 6615 2835 7875 2835
2 1 0 2 0 7 50 -1 -1 6.000 0 0 -1 0 0 2
	 6435 4635 6750 4635
2 1 0 2 0 7 50 -1 -1 6.000 0 0 -1 0 0 3
	 8100 2835 9315 2835 9315 4635
2 1 0 2 0 7 50 -1 -1 6.000 0 0 -1 0 0 2
	 9180 4635 9495 4635
2 1 0 1 0 7 50 -1 -1 4.000 0 0 -1 1 0 2
	1 1 1.00 60.00 120.00
	 7455 3015 7860 3015
2 1 0 1 0 7 50 -1 -1 4.000 0 0 -1 1 0 2
	1 1 1.00 60.00 120.00
	 8520 3015 8115 3015
4 0 0 50 -1 0 12 0.0000 4 60 105 3420 180 =\001
4 0 0 50 -1 0 12 0.0000 4 60 105 4005 180 =\001
4 0 0 50 -1 0 16 0.0000 4 180 135 4230 225 0\001
4 0 0 50 -1 0 16 0.0000 4 240 2475 3060 585 (violate antisymmetry)\001
4 0 0 50 -1 0 16 0.0000 4 180 900 3330 3060 unstable\001
4 0 0 50 -1 0 12 0.0000 4 60 105 10155 2955 =\001
4 0 0 50 -1 0 16 0.0000 4 180 135 10335 2985 0\001
4 0 0 50 -1 0 24 0.0000 4 180 180 1185 1440 a\001
4 0 0 50 -1 0 24 0.0000 4 270 210 7785 1485 b\001
4 0 0 50 -1 0 24 0.0000 4 180 180 1110 4230 c\001
4 0 0 50 -1 0 24 0.0000 4 270 210 7710 4155 d\001
