#FIG 3.2
Landscape
Center
Inches
Letter  
100.00
Single
-2
1200 2
6 8325 2325 10275 3675
6 8325 2325 9675 3675
6 8325 2325 9675 3675
2 1 0 2 0 7 50 0 -1 0.000 0 0 -1 0 0 4
	 8400 3600 8400 2400 9600 3600 8400 3600
2 1 0 2 0 7 50 0 -1 0.000 0 0 -1 0 0 3
	 8400 2400 9600 2400 9600 3600
-6
2 1 0 2 0 7 50 0 -1 0.000 0 0 -1 0 0 2
	 9600 2400 8400 3600
-6
2 1 0 2 0 7 50 0 -1 0.000 0 0 -1 0 0 3
	 9600 2400 10200 3000 9600 3600
-6
6 6075 2325 7425 3675
6 6075 2325 7425 3675
2 1 0 2 0 7 50 0 -1 0.000 0 0 -1 0 0 4
	 6150 3600 6150 2400 7350 3600 6150 3600
2 1 0 2 0 7 50 0 -1 0.000 0 0 -1 0 0 3
	 6150 2400 7350 2400 7350 3600
-6
2 1 0 2 0 7 50 0 -1 0.000 0 0 -1 0 0 2
	 7350 2400 6150 3600
-6
6 3900 2325 5250 3675
2 1 0 2 0 7 50 0 -1 0.000 0 0 -1 0 0 4
	 3975 3600 3975 2400 5175 3600 3975 3600
2 1 0 2 0 7 50 0 -1 0.000 0 0 -1 0 0 3
	 3975 2400 5175 2400 5175 3600
-6
6 10650 2175 12975 3900
6 10800 2325 12750 3675
6 10800 2325 12150 3675
6 10800 2325 12150 3675
2 1 0 2 0 7 50 0 -1 0.000 0 0 -1 0 0 4
	 10875 3600 10875 2400 12075 3600 10875 3600
2 1 0 2 0 7 50 0 -1 0.000 0 0 -1 0 0 3
	 10875 2400 12075 2400 12075 3600
-6
2 1 0 2 0 7 50 0 -1 0.000 0 0 -1 0 0 2
	 12075 2400 10875 3600
-6
2 1 0 2 0 7 50 0 -1 0.000 0 0 -1 0 0 3
	 12075 2400 12675 3000 12075 3600
-6
6 10650 3600 11100 3900
2 3 0 1 0 7 50 0 -1 0.000 0 0 -1 0 0 4
	 10725 3825 10875 3600 11025 3825 10725 3825
2 1 0 1 0 7 50 0 -1 0.000 0 0 -1 0 0 2
	 10650 3900 11100 3900
-6
6 12675 2175 12975 2625
2 3 0 1 0 7 50 0 -1 0.000 0 0 -1 0 0 4
	 12900 2550 12675 2400 12900 2250 12900 2550
2 1 0 1 0 7 50 0 -1 0.000 0 0 -1 0 0 2
	 12975 2625 12975 2175
-6
6 12675 2775 12975 3225
2 3 0 1 0 7 50 0 -1 0.000 0 0 -1 0 0 4
	 12900 3150 12675 3000 12900 2850 12900 3150
2 1 0 1 0 7 50 0 -1 0.000 0 0 -1 0 0 2
	 12975 3225 12975 2775
-6
-6
6 13575 2325 15525 3675
6 13575 2325 14925 3675
6 13575 2325 14925 3675
2 1 0 2 0 7 50 0 -1 0.000 0 0 -1 0 0 4
	 13650 3600 13650 2400 14850 3600 13650 3600
2 1 0 2 0 7 50 0 -1 0.000 0 0 -1 0 0 3
	 13650 2400 14850 2400 14850 3600
-6
2 1 0 2 0 7 50 0 -1 0.000 0 0 -1 0 0 2
	 14850 2400 13650 3600
-6
2 1 0 2 0 7 50 0 -1 0.000 0 0 -1 0 0 3
	 14850 2400 15450 3000 14850 3600
-6
6 13425 3600 13875 3900
2 3 0 1 0 7 50 0 -1 0.000 0 0 -1 0 0 4
	 13500 3825 13650 3600 13800 3825 13500 3825
2 1 0 1 0 7 50 0 -1 0.000 0 0 -1 0 0 2
	 13425 3900 13875 3900
-6
6 15450 2175 15750 2625
2 3 0 1 0 7 50 0 -1 0.000 0 0 -1 0 0 4
	 15675 2550 15450 2400 15675 2250 15675 2550
2 1 0 1 0 7 50 0 -1 0.000 0 0 -1 0 0 2
	 15750 2625 15750 2175
-6
6 15450 2775 15750 3225
2 3 0 1 0 7 50 0 -1 0.000 0 0 -1 0 0 4
	 15675 3150 15450 3000 15675 2850 15675 3150
2 1 0 1 0 7 50 0 -1 0.000 0 0 -1 0 0 2
	 15750 3225 15750 2775
-6
6 15450 3375 15750 3825
2 3 0 1 0 7 50 0 -1 0.000 0 0 -1 0 0 4
	 15675 3750 15450 3600 15675 3450 15675 3750
2 1 0 1 0 7 50 0 -1 0.000 0 0 -1 0 0 2
	 15750 3825 15750 3375
-6
2 1 0 2 0 7 50 0 -1 0.000 0 0 -1 0 0 2
	 12075 2400 12675 2400
2 1 0 2 0 7 50 0 -1 0.000 0 0 -1 0 0 4
	 2100 3600 2100 2400 3300 3600 2100 3600
2 1 0 2 0 7 50 0 -1 0.000 0 0 -1 0 0 2
	 14850 2400 15450 2400
2 1 0 2 0 7 50 0 -1 0.000 0 0 -1 0 0 2
	 14850 3600 15450 3600
4 0 0 50 0 0 32 0.0000 4 345 1155 2100 2175 1 ISD\001
4 0 0 50 0 0 32 0.0000 4 345 1155 4125 2175 2 ISD\001
4 0 0 50 0 0 32 0.0000 4 345 1320 6225 2175 3 ISI 1\001
4 0 0 50 0 0 32 0.0000 4 345 1320 8475 2175 4 ISI 1\001
4 0 0 50 0 0 32 0.0000 4 345 1155 11175 2175 5 SI 1\001
4 0 0 50 0 0 32 0.0000 4 345 1155 14025 2250 6 SI 2\001
