#FIG 3.2
Landscape
Center
Inches
Letter  
100.00
Single
-2
1200 2
6 5850 2400 6150 2700
2 3 0 1 0 7 50 0 -1 0.000 0 0 -1 0 0 4
	 5850 2625 6000 2400 6150 2625 5850 2625
2 1 0 1 0 7 50 0 -1 0.000 0 0 -1 0 0 2
	 5850 2700 6150 2700
-6
6 2775 1800 3075 2250
4 0 0 50 0 0 24 0.0000 4 255 210 2775 2100 F\001
4 0 0 50 0 0 16 0.0000 4 165 120 2925 2250 1\001
-6
6 4200 1800 4500 2250
4 0 0 50 0 0 24 0.0000 4 255 210 4200 2100 F\001
4 0 0 50 0 0 16 0.0000 4 165 120 4350 2250 2\001
-6
2 1 0 3 0 7 50 0 -1 0.000 0 0 -1 0 0 2
	 1200 2400 6000 2400
2 3 0 1 0 7 50 0 -1 0.000 0 0 -1 0 0 4
	 1050 2625 1200 2400 1350 2625 1050 2625
2 1 0 2 0 7 50 0 -1 0.000 0 0 -1 1 0 2
	1 1 2.00 120.00 240.00
	 2625 1575 2625 2325
2 1 0 2 0 7 50 0 -1 0.000 0 0 -1 1 0 2
	1 1 2.00 120.00 240.00
	 4125 1575 4125 2325
2 1 1 2 0 7 50 0 -1 6.000 0 0 -1 1 0 2
	1 1 2.00 120.00 240.00
	 3450 3225 3450 2475
4 0 0 50 0 0 24 0.0000 4 255 255 1125 3075 A\001
4 0 0 50 0 0 24 0.0000 4 255 240 6000 3075 C\001
4 0 0 50 0 0 24 0.0000 4 255 270 3600 3150 X\001
