#FIG 3.2
Landscape
Center
Metric
A4      
100.00
Single
-2
1200 2
5 1 0 1 0 7 50 0 -1 4.000 0 1 1 0 3145.500 4815.000 2385 4590 2385 5040 2610 5400
	1 1 1.00 60.00 120.00
5 1 0 1 0 7 50 0 -1 4.000 0 1 1 0 4233.750 4770.000 4545 5310 4815 4995 4815 4545
	1 1 1.00 60.00 120.00
5 1 0 1 0 7 50 0 -1 4.000 0 1 1 0 3763.125 3948.750 4275 3375 3915 3195 3465 3240
	1 1 1.00 60.00 120.00
6 6210 2115 11835 6345
5 1 0 2 0 7 50 0 -1 6.000 0 1 1 0 8726.785 4635.000 8775 4995 9090 4635 8775 4275
	1 1 2.00 120.00 240.00
5 1 0 2 0 7 50 0 -1 6.000 0 1 1 0 10182.273 5085.000 10350 4725 9855 4860 9855 5310
	1 1 2.00 120.00 240.00
5 1 0 2 0 7 50 0 -1 6.000 0 1 1 0 10009.166 3897.500 9630 3735 9765 4230 10305 4185
	1 1 2.00 120.00 240.00
1 3 0 3 0 7 50 0 0 8.000 1 0.0000 9495 4635 90 90 9495 4635 9585 4635
2 1 0 3 0 7 50 0 -1 8.000 0 0 -1 0 0 2
	 9855 4095 11025 2160
2 1 0 3 0 7 50 0 -1 8.000 0 0 -1 0 0 2
	 6255 4635 8955 4635
2 1 0 3 0 7 50 0 -1 8.000 0 0 -1 0 0 2
	 9942 4954 11787 6304
2 1 0 2 0 7 50 0 -1 6.000 0 0 -1 1 0 2
	1 1 2.00 120.00 240.00
	 10935 5310 11430 5670
2 1 0 2 0 7 50 0 -1 6.000 0 0 -1 1 0 2
	1 1 2.00 120.00 240.00
	 7650 4860 6975 4860
2 1 0 2 0 7 50 0 -1 6.000 0 0 -1 1 0 2
	1 1 2.00 120.00 240.00
	 10636 3295 11041 2665
4 0 0 50 0 1 32 0.0000 4 345 135 9405 5130 i\001
4 0 0 50 0 1 32 0.0000 4 345 135 11295 5445 l\001
4 0 0 50 0 1 32 0.0000 4 345 420 10170 4140 M\001
4 0 0 50 0 1 32 0.0000 4 345 420 9450 5625 M\001
4 0 0 50 0 1 24 0.0000 4 300 285 9855 5715 i,l\001
4 0 0 50 0 1 24 0.0000 4 300 360 10575 4230 i,k\001
4 0 0 50 0 1 32 0.0000 4 345 420 8145 4140 M\001
4 0 0 50 0 1 24 0.0000 4 315 285 8595 4185 i,j\001
4 0 0 50 0 1 32 0.0000 4 450 135 7290 5265 j\001
4 0 0 50 0 1 32 0.0000 4 345 225 10935 3330 k\001
-6
2 1 0 3 0 7 50 0 -1 8.000 0 0 -1 0 0 2
	 900 4590 3600 4590
2 1 0 3 0 7 50 0 -1 8.000 0 0 -1 0 0 2
	 3580 4601 5425 5951
2 1 0 3 0 7 50 0 -1 8.000 0 0 -1 0 0 2
	 3604 4547 4774 2612
2 1 0 1 0 7 50 0 -1 4.000 0 0 -1 0 0 2
	 3600 4590 4995 4590
2 1 0 1 0 7 50 0 -1 4.000 0 0 -1 0 0 2
	 3600 4500 3465 2970
2 1 0 1 0 7 50 0 -1 4.000 0 0 -1 0 0 2
	 3600 4590 2430 5535
3 0 1 3 0 7 50 0 -1 8.000 0 0 0 5
	 900 4590 1575 4410 2520 4860 3195 4905 3600 4590
	 0.000 1.000 1.000 1.000 0.000
3 0 1 3 0 7 50 0 -1 8.000 0 0 0 6
	 3600 4590 3870 4590 4455 4680 5040 5085 5310 5580 5400 5940
	 0.000 1.000 1.000 1.000 1.000 0.000
3 0 1 3 0 7 50 0 -1 8.000 0 0 0 7
	 3600 4590 3555 4185 3600 3645 3915 3195 4410 3015 4590 2925
	 4770 2610
	 0.000 1.000 1.000 1.000 1.000 1.000 0.000
4 0 0 50 0 1 32 0.0000 4 450 135 855 4995 j\001
4 0 0 50 0 1 32 0.0000 4 345 135 3420 5085 i\001
4 0 0 50 0 1 32 0.0000 4 345 225 4950 2925 k\001
4 0 0 50 0 1 32 0.0000 4 345 135 5580 5850 l\001
4 0 0 50 0 32 32 0.0000 4 450 255 2025 5220 f\001
4 0 0 50 0 32 32 0.0000 4 450 255 4995 4950 f\001
4 0 0 50 0 32 32 0.0000 4 450 255 3690 3150 f\001
4 0 0 50 0 1 24 0.0000 4 240 105 2295 5355 i\001
4 0 0 50 0 1 24 0.0000 4 240 105 3960 3240 i\001
4 0 0 50 0 1 24 0.0000 4 240 105 5265 5085 i\001
