#FIG 3.2
Landscape
Center
Metric
A4      
100.00
Single
-2
1200 2
1 3 0 2 0 7 50 0 0 0.000 1 0.0000 3060 2250 101 101 3060 2250 2970 2295
2 1 0 2 0 7 50 0 -1 0.000 0 0 -1 0 0 2
	 1350 2250 2520 2250
2 1 0 2 0 7 50 0 -1 0.000 0 0 -1 0 0 2
	 3060 2790 3060 3825
2 1 0 2 0 7 50 0 -1 0.000 0 0 -1 1 0 2
	1 1 2.00 120.00 240.00
	 3150 2790 4005 2790
2 1 0 2 0 7 50 0 -1 0.000 0 0 -1 1 0 2
	1 1 2.00 120.00 240.00
	 2565 2250 2565 3015
2 1 0 2 0 7 50 0 -1 0.000 0 0 -1 1 0 3
	1 1 2.00 120.00 240.00
	 3060 2700 3060 1935 3060 1575
2 1 0 2 0 7 50 0 -1 0.000 0 0 -1 1 0 2
	1 1 2.00 120.00 240.00
	 2790 2250 3690 2250
2 1 0 1 0 7 50 0 -1 0.000 0 0 -1 1 0 3
	1 1 2.00 120.00 240.00
	 1665 2070 2610 2070 2925 2160
4 0 0 50 0 1 32 0.0000 4 330 285 3510 3240 V\001
4 0 0 50 0 1 32 0.0000 4 330 285 1755 2925 V\001
4 0 0 50 0 1 24 0.0000 4 300 450 2025 3105 2,1\001
4 0 0 50 0 1 24 0.0000 4 300 450 3780 3375 2,3\001
4 0 0 50 0 1 32 0.0000 4 330 315 3150 1890 N\001
4 0 0 50 0 1 24 0.0000 4 300 450 3420 2025 2,3\001
4 0 0 50 0 1 32 0.0000 4 330 315 3735 2475 N\001
4 0 0 50 0 1 24 0.0000 4 300 450 4005 2610 2,1\001
4 0 0 50 0 1 24 0.0000 4 330 945 1665 1980 joint 2\001
