#FIG 3.2
Landscape
Center
Metric
A4      
100.00
Single
-2
1200 2
5 1 0 1 0 7 50 0 -1 4.000 0 1 1 0 2137.500 2272.500 2115 1980 1845 2295 2115 2565
	1 1 1.00 60.00 120.00
5 1 0 1 0 7 50 0 -1 4.000 0 1 1 0 6880.500 2205.000 6930 2475 7155 2205 6930 1935
	1 1 1.00 60.00 120.00
2 1 0 2 0 7 50 0 -1 6.000 0 0 -1 0 0 2
	 2250 2250 6750 2250
2 1 0 2 0 7 50 0 -1 6.000 0 0 -1 0 0 2
	 2250 1980 2250 2520
2 1 0 2 0 7 50 0 -1 6.000 0 0 -1 0 0 2
	 6750 1980 6750 2475
2 1 0 1 0 7 50 0 -1 4.000 0 0 -1 0 0 2
	 2250 2610 2250 2880
2 1 0 1 0 7 50 0 -1 4.000 0 0 -1 0 0 2
	 2250 2610 2250 2880
2 1 0 1 0 7 50 0 -1 4.000 0 0 -1 0 0 2
	 6750 2565 6750 2835
2 1 0 1 0 7 50 0 -1 4.000 0 0 -1 1 1 2
	1 1 1.00 60.00 120.00
	1 1 1.00 60.00 120.00
	 2250 2700 6750 2700
2 1 0 1 0 7 50 0 -1 0.000 0 0 -1 0 0 2
	 2250 2160 6705 2160
2 1 0 1 0 7 50 0 -1 0.000 0 0 -1 0 0 2
	 2250 2340 6750 2340
2 1 0 2 0 7 50 0 -1 0.000 0 0 -1 0 1 2
	1 1 2.00 120.00 240.00
	 2970 2160 2970 1530
2 1 0 2 0 7 50 0 -1 0.000 0 0 -1 0 1 2
	1 1 2.00 120.00 240.00
	 2970 2340 2970 2790
2 1 0 1 0 7 50 0 -1 0.000 0 0 -1 0 1 2
	1 1 1.00 60.00 120.00
	 6120 2160 6120 1575
2 1 0 1 0 7 50 0 -1 0.000 0 0 -1 0 1 2
	1 1 1.00 60.00 120.00
	 6120 2340 6120 2655
4 0 0 50 0 1 24 0.0000 4 255 90 4545 2655 l\001
4 0 0 50 0 1 24 0.0000 4 255 300 1710 1845 M\001
4 0 0 50 0 1 24 0.0000 4 255 300 6885 1845 M\001
4 0 0 50 0 1 18 0.0000 4 195 75 1980 1935 i\001
4 0 0 50 0 1 18 0.0000 4 240 75 7155 1935 j\001
4 0 0 50 0 1 24 0.0000 4 210 1545 3465 1935 t= t      - t\001
4 0 0 50 0 32 24 0.0000 4 255 225 3195 1935 D\001
4 0 0 50 0 1 18 0.0000 4 180 615 4005 2025 upper\001
4 0 0 50 0 1 18 0.0000 4 195 615 4995 2025 lower\001
4 0 0 50 0 1 24 0.0000 4 255 195 6210 2070 h\001
4 0 0 50 0 32 24 0.0000 4 195 240 2610 3195 a\001
4 0 0 50 0 1 24 0.0000 4 300 570 2880 3195 ,EJ \001
4 0 0 50 0 0 24 0.0000 4 225 1260 3510 3195 constant\001
