#FIG 3.2
Landscape
Center
Metric
Letter  
100.00
Single
-2
1200 2
6 6840 3195 7920 4050
4 0 0 50 0 0 24 5.4978 4 255 810 7158 3417 0.125\001
4 0 0 50 0 0 24 5.4978 4 255 450 6861 3714 5.0\001
-6
6 8595 5040 9720 5850
4 0 0 50 0 0 24 5.4978 4 255 810 8925 5229 0.062\001
4 0 0 50 0 0 24 5.4978 4 255 450 8628 5526 2.5\001
-6
1 4 0 1 0 7 50 0 -1 0.000 1 0.0000 6255 3532 406 406 5850 3555 6660 3510
1 4 0 1 0 7 50 0 -1 0.000 1 0.0000 6255 -563 406 406 5850 -540 6660 -585
2 3 0 1 0 7 50 0 -1 0.000 0 0 -1 0 0 5
	 6435 3915 6705 3645 9135 6075 8820 6345 6435 3915
2 2 0 1 0 7 50 0 -1 0.000 0 0 -1 0 0 5
	 2115 3690 5805 3690 5805 3330 2115 3330 2115 3690
2 2 0 1 0 7 50 0 -1 0.000 0 0 -1 0 0 5
	 6075 3105 6435 3105 6435 -135 6075 -135 6075 3105
2 2 0 1 0 7 50 0 -1 0.000 0 0 -1 0 0 5
	 2160 -405 5850 -405 5850 -765 2160 -765 2160 -405
2 1 0 1 0 7 50 0 -1 0.000 0 0 -1 0 0 2
	 7380 3150 7965 3735
3 0 0 1 0 7 50 0 -1 0.000 0 0 0 2
	 4905 4500 5805 4500
	 0.000 0.000
3 0 0 1 0 7 50 0 -1 0.000 0 0 0 2
	 7020 3420 7425 3825
	 0.000 0.000
3 0 0 1 0 7 50 0 -1 0.000 0 0 0 2
	 5670 2970 5670 2430
	 0.000 0.000
3 0 0 1 0 7 50 0 -1 0.000 0 0 0 2
	 5175 -45 5760 -45
	 0.000 0.000
3 0 0 1 0 7 50 0 -1 0.000 0 0 0 2
	 7155 585 7155 -90
	 0.000 0.000
3 0 0 1 0 7 50 0 -1 0.000 0 0 0 2
	 4950 3015 4950 2295
	 0.000 0.000
3 0 0 1 0 7 50 0 -1 0.000 0 0 0 2
	 4950 4860 6165 4860
	 0.000 0.000
4 0 0 50 0 0 32 0.0000 4 330 225 1665 3780 1\001
4 0 0 50 0 0 32 0.0000 4 330 225 6165 3690 2\001
4 0 0 50 0 0 32 0.0000 4 330 225 9135 6615 3\001
4 0 0 50 0 0 32 0.0000 4 330 225 6165 -360 4\001
4 0 0 50 0 0 32 0.0000 4 330 225 1665 -360 5\001
4 0 0 50 0 0 28 0.0000 4 285 495 5220 3645 0.3\001
4 0 0 50 0 0 28 1.5708 4 285 495 6390 2925 0.2\001
4 0 0 50 0 0 28 0.0000 4 285 495 5265 -450 0.5\001
4 0 0 50 0 0 28 1.5708 4 285 495 6435 450 0.5\001
4 0 0 50 0 0 24 0.0000 4 255 840 4905 4095 -10.0\001
4 0 0 50 0 0 24 0.0000 4 255 450 5310 4455 3.0\001
4 0 0 50 0 0 24 1.5708 4 255 450 5985 2925 2.0\001
4 0 0 50 0 0 24 1.5708 4 255 840 5625 3150 -0.25\001
4 0 0 50 0 0 28 5.4978 4 285 495 6578 3960 0.5\001
4 0 0 50 0 0 24 0.0000 4 255 810 5355 4815 0.075\001
4 0 0 50 0 0 24 1.5708 4 255 630 5265 2925 0.05\001
4 0 0 50 0 0 24 1.5708 4 255 450 6795 450 1.0\001
4 0 0 50 0 0 24 1.5708 4 255 660 7110 630 -0.5\001
4 0 0 50 0 0 24 1.5708 4 255 810 7470 450 0.025\001
4 0 0 50 0 0 24 0.0000 4 255 660 5085 -135 -0.5\001
4 0 0 50 0 0 24 0.0000 4 255 840 2115 -90 -0.25\001
