#FIG 3.2
Landscape
Center
Metric
A4      
100.00
Single
-2
1200 2
6 630 1350 4545 3375
2 1 0 3 0 7 50 0 -1 0.000 0 0 -1 0 0 2
	 900 1800 4500 1800
2 1 0 2 0 7 50 0 -1 0.000 0 0 -1 0 0 2
	 900 1395 900 3330
2 1 0 1 0 7 50 0 -1 0.000 0 0 -1 0 0 2
	 900 1395 630 1755
2 1 0 1 0 7 50 0 -1 0.000 0 0 -1 0 0 2
	 916 1733 646 2093
2 1 0 1 0 7 50 0 -1 0.000 0 0 -1 0 0 2
	 916 2093 646 2453
2 1 0 1 0 7 50 0 -1 0.000 0 0 -1 0 0 2
	 916 2453 646 2813
2 1 0 1 0 7 50 0 -1 0.000 0 0 -1 0 0 2
	 916 2813 646 3173
2 1 0 1 0 7 50 0 -1 0.000 0 0 -1 0 0 2
	 916 3128 720 3375
-6
6 7425 1350 11340 3375
2 1 0 3 0 7 50 0 -1 0.000 0 0 -1 0 0 2
	 7695 1800 11295 1800
2 1 0 2 0 7 50 0 -1 0.000 0 0 -1 0 0 2
	 7695 1395 7695 3330
2 1 0 1 0 7 50 0 -1 0.000 0 0 -1 0 0 2
	 7695 1395 7425 1755
2 1 0 1 0 7 50 0 -1 0.000 0 0 -1 0 0 2
	 7711 1733 7441 2093
2 1 0 1 0 7 50 0 -1 0.000 0 0 -1 0 0 2
	 7711 2093 7441 2453
2 1 0 1 0 7 50 0 -1 0.000 0 0 -1 0 0 2
	 7711 2453 7441 2813
2 1 0 1 0 7 50 0 -1 0.000 0 0 -1 0 0 2
	 7711 2813 7441 3173
2 1 0 1 0 7 50 0 -1 0.000 0 0 -1 0 0 2
	 7711 3128 7515 3375
-6
6 855 1800 2745 3195
1 4 0 1 0 7 50 0 -1 0.000 1 0.0000 967 3105 68 68 900 3105 1035 3105
1 4 0 1 0 7 50 0 -1 0.000 1 0.0000 2655 1890 68 68 2588 1890 2723 1890
2 1 0 3 0 7 50 0 -1 0.000 0 0 -1 0 0 2
	 990 3060 2565 1935
-6
6 1260 2070 2745 3240
4 0 0 50 0 1 32 0.6109 4 330 1155 1484 3224 t=10  \001
4 0 0 50 0 0 32 0.6109 4 330 315 2479 2528 C\001
4 0 0 50 0 0 24 0.6109 4 180 180 2218 2546 o\001
-6
6 1935 5985 2385 6300
4 0 0 50 0 32 24 0.5236 4 195 165 2070 6267 e\001
4 0 0 50 0 1 24 0.5236 4 210 105 2271 6255 t\001
-6
6 1035 4545 4950 4905
6 2115 4590 2475 4905
4 0 0 50 0 1 24 0.0000 4 210 105 2340 4905 t\001
4 0 0 50 0 32 24 0.0000 4 195 210 2115 4815 k\001
-6
4 0 0 50 0 1 24 0.0000 4 255 840 1035 4815 M      \001
4 0 0 50 0 1 24 0.0000 4 210 105 1305 4905 t\001
4 0 0 50 0 0 24 0.0000 4 330 3465 1485 4815 and      void everywhere\001
-6
6 855 6930 4545 7875
2 1 0 2 0 7 50 0 -1 0.000 0 0 -1 0 0 2
	 900 6975 4500 6975
2 1 0 1 0 7 50 0 -1 0.000 0 0 -1 0 0 2
	 2700 6975 900 7740
2 1 0 1 0 7 50 0 -1 0.000 0 0 -1 0 0 2
	 900 7740 900 6975
4 0 0 50 0 0 24 0.0000 4 255 450 1260 7875 7.4\001
-6
1 4 0 1 0 7 50 0 -1 0.000 1 0.0000 7807 3105 68 68 7740 3105 7875 3105
1 4 0 1 0 7 50 0 -1 0.000 1 0.0000 9495 1890 68 68 9428 1890 9563 1890
2 1 0 1 0 7 50 0 -1 0.000 0 0 -1 0 0 2
	 900 3420 900 3780
2 1 0 1 0 7 50 0 -1 0.000 0 0 -1 0 0 2
	 2700 3060 2700 3825
2 1 0 1 0 7 50 0 -1 0.000 0 0 -1 0 0 2
	 4500 3015 4500 3780
2 1 0 1 0 7 50 0 -1 0.000 0 0 -1 0 0 2
	 4815 1800 5355 1800
2 1 0 1 0 7 50 0 -1 0.000 0 0 -1 0 0 2
	 4815 3150 5355 3150
2 1 0 1 0 7 50 0 -1 0.000 0 0 -1 1 1 2
	1 1 1.00 60.00 120.00
	1 1 1.00 60.00 120.00
	 900 3645 2700 3645
2 1 0 1 0 7 50 0 -1 0.000 0 0 -1 1 1 2
	1 1 1.00 60.00 120.00
	1 1 1.00 60.00 120.00
	 2700 3645 4500 3645
2 1 0 1 0 7 50 0 -1 0.000 0 0 -1 1 1 2
	1 1 1.00 60.00 120.00
	1 1 1.00 60.00 120.00
	 5220 3150 5220 1755
2 2 0 2 0 7 50 0 -1 0.000 0 0 -1 0 0 5
	 5895 1620 6120 1620 6120 1980 5895 1980 5895 1620
2 1 0 1 0 7 50 0 -1 0.000 0 0 -1 0 0 2
	 1035 3195 1845 4230
2 1 0 1 0 7 50 0 -1 0.000 0 0 -1 0 0 2
	 2752 1975 3510 2970
2 1 0 3 0 7 50 0 -1 0.000 0 0 -1 0 0 2
	 7830 3060 8775 2385
2 1 0 2 0 7 50 0 -1 0.000 0 0 -1 1 0 2
	1 1 2.00 120.00 240.00
	 8820 2340 9045 2160
2 1 0 2 0 7 50 0 -1 0.000 0 0 -1 1 0 2
	1 1 2.00 120.00 240.00
	 9450 1935 9135 2160
2 1 0 2 0 7 50 0 -1 0.000 0 0 -1 0 0 2
	 7740 7110 11340 7110
2 1 0 2 0 7 50 0 -1 0.000 0 0 -1 0 0 2
	 7771 8350 9481 7135
2 1 0 1 0 7 50 0 -1 0.000 0 0 -1 0 0 4
	 7830 8370 8055 8685 9765 7425 9495 7110
2 1 0 1 0 7 50 0 -1 0.000 0 0 -1 0 0 4
	 7740 7110 7740 6750 9540 6750 9540 7110
2 1 0 2 0 7 50 0 -1 0.000 0 0 -1 0 0 2
	 7740 4680 11340 4680
2 1 0 2 0 7 50 0 -1 0.000 0 0 -1 0 0 2
	 7771 5920 9481 4705
2 1 0 1 0 7 50 0 -1 0.000 0 0 -1 0 0 3
	 9540 4680 7740 4050 7740 4680
2 1 0 1 0 7 50 0 -1 0.000 0 0 -1 1 1 2
	1 1 1.00 60.00 120.00
	1 1 1.00 60.00 120.00
	 1727 4074 3437 2859
2 1 0 2 0 7 50 0 -1 0.000 0 0 -1 0 0 2
	 900 5085 4500 5085
2 1 0 2 0 7 50 0 -1 0.000 0 0 -1 0 0 2
	 905 6306 2615 5091
2 1 0 1 0 7 50 0 -1 0.000 0 0 -1 0 0 4
	 900 6300 1125 6615 2880 5355 2655 5085
2 1 0 2 0 7 50 0 -1 0.000 0 0 -1 0 0 2
	 900 8460 4500 8460
2 1 0 2 0 7 50 0 -1 0.000 0 0 -1 0 1 2
	1 1 1.00 60.00 120.00
	 995 9681 2705 8466
2 1 0 1 0 7 50 0 -1 0.000 0 0 -1 0 0 4
	 900 8460 900 8100 2700 8100 2700 8415
2 1 0 1 0 7 50 0 -1 0.000 0 0 -1 0 0 4
	 1035 9675 1305 10035 2970 8820 2700 8460
4 0 0 50 0 0 24 0.0000 4 255 180 1665 3555 4\001
4 0 0 50 0 0 24 1.5708 4 255 180 5130 2565 3\001
4 0 0 50 0 0 24 0.0000 4 255 180 3465 3555 4\001
4 0 0 50 0 1 24 0.5236 4 270 225 1530 2565 A\001
4 0 0 50 0 1 16 0.5236 4 165 120 1800 2430 S\001
4 0 0 50 0 0 16 0.0000 4 165 285 5940 2295 0.3\001
4 0 0 50 0 0 16 1.5708 4 165 285 6480 1935 0.4\001
4 0 0 50 0 1 24 0.0000 4 255 225 9090 2520 X\001
4 0 0 50 0 0 24 0.0000 4 255 3990 7425 1260 PRIMARY STRUCTURE:\001
4 0 0 50 0 1 24 0.0000 4 330 1080 8550 6165 N (   N)\001
4 0 0 50 0 32 24 0.0000 4 270 180 9090 6165 d\001
4 0 0 50 0 0 24 0.0000 4 255 450 9630 6885 0.8\001
4 0 0 50 0 0 24 0.5236 4 255 660 9923 7689 -1.0\001
4 0 0 50 0 1 24 0.0000 4 330 1110 8550 3735 M (  M)\001
4 0 0 50 0 32 24 0.0000 4 270 180 9090 3735 d\001
4 0 0 50 0 0 24 0.0000 4 255 450 7965 4095 2.4\001
4 0 0 50 0 0 16 0.0000 4 165 120 8775 6255 1\001
4 0 0 50 0 0 24 0.0000 4 255 990 945 4410 L.C. 0:\001
4 0 0 50 0 0 24 0.0000 4 255 990 8820 3240 L.C. 1:\001
4 0 0 50 0 1 24 0.0000 4 315 975 2385 1710 E, J, A\001
4 0 0 50 0 0 24 0.5236 4 255 180 2430 3555 5\001
4 0 0 50 0 1 32 0.0000 4 330 540 1755 6930 M:\001
4 0 0 50 0 0 24 0.0000 4 255 630 2880 8325 2.47\001
4 0 0 50 0 0 24 0.5236 4 255 840 3021 9292 -3.09\001
4 0 0 50 0 1 32 0.0000 4 330 465 1980 8055 N:\001
4 0 0 50 0 0 16 0.0000 4 165 120 8820 3825 1\001
