#FIG 3.2
Landscape
Center
Metric
A4      
100.00
Single
-2
1200 2
6 2160 1350 5625 3690
2 1 0 2 0 7 50 0 -1 6.000 0 0 -1 0 0 4
	 5580 1395 2205 1395 2205 3645 5580 3645
2 1 0 2 0 7 50 0 -1 6.000 0 0 -1 0 0 2
	 4455 1395 4455 3645
2 1 0 2 0 7 50 0 -1 6.000 0 0 -1 0 0 2
	 2205 1395 4455 3645
2 1 0 2 0 7 50 0 -1 6.000 0 0 -1 0 0 3
	 4455 1395 5580 2520 4455 3600
-6
6 4455 2340 4815 2655
2 1 0 1 0 7 50 0 -1 0.000 0 0 -1 0 0 4
	 4455 2340 4815 2340 4815 2655 4455 2655
4 0 0 50 0 0 24 4.7124 4 255 180 4500 2385 0\001
-6
6 4545 2475 5400 3240
2 1 0 1 0 7 50 0 -1 0.000 0 0 -1 0 0 4
	 4800 3240 4576 3016 5117 2477 5373 2731
4 0 0 50 0 0 24 0.7854 4 255 630 4863 3177 0.23\001
-6
6 4725 1395 5670 2340
2 1 0 1 0 7 50 0 -1 0.000 0 0 -1 0 0 4
	 4725 1665 4980 1410 5648 2079 5393 2333
4 0 0 50 0 0 24 5.4978 4 255 840 4789 1665 -0.23\001
-6
6 5535 1350 9000 3690
2 1 0 2 0 7 50 0 -1 6.000 0 0 -1 0 0 4
	 5580 1395 8955 1395 8955 3645 5580 3645
2 1 0 2 0 7 50 0 -1 6.000 0 0 -1 0 0 2
	 6705 1395 6705 3645
2 1 0 2 0 7 50 0 -1 6.000 0 0 -1 0 0 2
	 8955 1395 6705 3645
2 1 0 2 0 7 50 0 -1 6.000 0 0 -1 0 0 3
	 6705 1395 5580 2520 6705 3600
-6
6 6705 2385 7065 2700
2 1 0 1 0 7 50 0 -1 0.000 0 0 -1 0 0 4
	 6705 2385 7065 2385 7065 2700 6705 2700
4 0 0 50 0 0 24 4.7124 4 255 180 6750 2430 0\001
-6
6 3510 2430 4410 3330
2 1 0 1 0 7 50 0 -1 0.000 0 0 -1 0 0 4
	 3510 2700 3780 2430 4410 3060 4185 3330
4 0 0 50 0 0 24 5.4978 4 255 840 3600 2700 -0.22\001
-6
6 2340 2430 3195 3240
2 1 0 1 0 7 50 0 -1 0.000 0 0 -1 0 0 4
	 2610 3240 2355 2985 2896 2445 3151 2699
4 0 0 50 0 0 24 0.7854 4 255 630 2642 3145 0.24\001
-6
6 1845 1800 2205 2970
2 1 0 1 0 7 50 0 -1 0.000 0 0 -1 0 0 4
	 2205 2970 1845 2970 1845 1800 2205 1800
4 0 0 50 0 0 24 1.5708 4 255 630 2160 2880 0.14\001
-6
6 8550 1890 8955 2835
2 1 0 1 0 7 50 0 -1 0.000 0 0 -1 0 0 4
	 8955 2835 8550 2835 8550 1890 8955 1890
4 0 0 50 0 0 24 1.5708 4 255 840 8865 2790 -0.14\001
-6
2 1 0 2 0 7 50 0 -1 0.000 0 0 -1 0 0 2
	 2205 3645 4455 1395
2 1 0 1 0 7 50 0 -1 0.000 0 0 -1 0 0 4
	 2790 3645 2790 3285 3510 3285 3510 3645
2 1 0 1 0 7 50 0 -1 0.000 0 0 -1 0 0 4
	 2790 1395 2790 1710 3735 1710 3735 1395
2 1 0 2 0 7 50 0 -1 0.000 0 0 -1 0 0 2
	 6705 1395 8955 3600
2 1 0 1 0 7 50 0 -1 0.000 0 0 -1 0 0 4
	 7965 2655 8235 2385 8865 3015 8640 3285
2 1 0 1 0 7 50 0 -1 0.000 0 0 -1 0 0 4
	 8010 2340 7755 2085 8296 1545 8551 1799
2 1 0 1 0 7 50 0 -1 0.000 0 0 -1 0 0 4
	 5265 3645 5265 3285 5895 3285 5895 3645
2 1 0 1 0 7 50 0 -1 0.000 0 0 -1 0 0 4
	 7470 3645 7470 3285 8235 3285 8235 3645
2 1 0 1 0 7 50 0 -1 0.000 0 0 -1 0 0 4
	 7155 1395 7155 1710 8055 1710 8055 1395
2 1 0 1 0 7 50 0 -1 0.000 0 0 -1 0 0 4
	 5355 1395 5355 1800 6120 1800 6120 1395
4 0 0 50 0 0 24 0.0000 4 255 630 2835 3600 0.83\001
4 0 0 50 0 0 24 0.0000 4 255 2625 2205 1170 FINAL FORCES:\001
4 0 0 50 0 0 24 0.0000 4 255 840 2835 1665 -0.83\001
4 0 0 50 0 0 24 0.0000 4 255 450 5355 3600 0.5\001
4 0 0 50 0 0 24 0.0000 4 255 660 5400 1710 -0.5\001
4 0 0 50 0 0 24 5.4978 4 255 840 8055 2655 -0.24\001
4 0 0 50 0 0 24 0.7854 4 255 630 8042 2245 0.22\001
4 0 0 50 0 0 24 0.0000 4 255 630 7560 3600 0.17\001
4 0 0 50 0 0 24 0.0000 4 255 840 7200 1710 -0.17\001
