#FIG 3.2
Landscape
Center
Inches
Letter  
100.00
Single
-2
1200 2
2 1 0 3 0 7 50 0 -1 8.000 0 0 -1 0 0 3
	 1200 4800 3600 4800 4350 4050
2 3 0 1 0 7 50 0 -1 4.000 0 0 -1 0 0 4
	 4200 4275 4350 4050 4500 4275 4200 4275
2 1 0 2 0 7 50 0 -1 6.000 0 0 -1 0 0 2
	 1200 4500 1200 5100
2 1 0 1 0 7 50 0 -1 4.000 0 0 -1 0 0 2
	 1050 4650 1200 4500
2 1 0 1 0 7 50 0 -1 4.000 0 0 -1 0 0 2
	 1050 4800 1200 4650
2 1 0 1 0 7 50 0 -1 4.000 0 0 -1 0 0 2
	 1050 4950 1200 4800
2 1 0 1 0 7 50 0 -1 4.000 0 0 -1 0 0 2
	 1050 5100 1200 4950
2 1 0 1 0 7 50 0 -1 4.000 0 0 -1 0 0 2
	 1200 5175 1200 5625
2 1 0 1 0 7 50 0 -1 4.000 0 0 -1 0 0 2
	 3600 5175 3600 5625
2 1 0 1 0 7 50 0 -1 4.000 0 0 -1 0 0 2
	 4350 4425 4350 4875
2 1 0 1 0 7 50 0 -1 4.000 0 0 -1 1 1 2
	1 1 1.00 60.00 120.00
	1 1 1.00 60.00 120.00
	 1200 5550 3600 5550
2 1 0 1 0 7 50 0 -1 4.000 0 0 -1 1 1 2
	1 1 1.00 60.00 120.00
	1 1 1.00 60.00 120.00
	 3600 5550 4350 4725
2 1 0 1 0 7 50 0 -1 4.000 0 0 -1 1 1 4
	1 1 1.00 60.00 120.00
	1 1 1.00 60.00 120.00
	 3600 4800 3600 4200 4350 3450 4350 4050
2 1 0 1 0 7 50 0 -1 4.000 0 0 -1 0 0 2
	 3825 3975 3825 4575
2 1 0 1 0 7 50 0 -1 4.000 0 0 -1 0 0 2
	 4125 3675 4125 4275
2 1 0 1 0 7 50 0 -1 4.000 0 0 -1 0 0 3
	 3900 3900 3750 3750 3150 3750
2 1 0 2 0 7 50 0 -1 6.000 0 0 -1 1 0 2
	1 1 2.00 120.00 240.00
	 4650 4800 5325 4800
2 1 0 2 0 7 50 0 -1 6.000 0 0 -1 1 0 2
	1 1 2.00 120.00 240.00
	 4500 3900 4875 3525
2 1 0 2 0 7 50 0 -1 6.000 0 0 -1 1 0 2
	1 1 2.00 120.00 240.00
	 5325 4800 5550 4800
2 1 0 2 0 7 50 0 -1 6.000 0 0 -1 1 0 2
	1 1 2.00 120.00 240.00
	 4875 3525 5100 3300
2 1 0 2 0 7 50 0 -1 6.000 0 0 -1 1 0 2
	1 1 2.00 120.00 240.00
	 3600 5775 3600 5100
2 1 0 2 0 7 50 0 -1 6.000 0 0 -1 1 0 2
	1 1 2.00 120.00 240.00
	 3000 3075 2100 3975
2 1 0 2 0 7 50 0 -1 6.000 0 0 -1 1 0 2
	1 1 2.00 120.00 240.00
	 7050 4500 5400 4500
4 0 0 50 0 0 32 0.0000 4 330 135 3300 3750 f\001
4 0 0 50 0 0 24 0.0000 4 255 180 2325 5550 4\001
4 0 0 50 0 0 24 0.0000 4 255 180 3825 5025 2\001
4 0 0 50 0 0 32 0.0000 4 225 330 3750 5850 w\001
4 0 0 50 0 32 32 0.0000 4 435 270 4875 4050 f\001
4 0 0 50 0 32 32 0.0000 4 435 270 4875 5250 f\001
4 0 0 50 0 0 24 0.0000 4 180 195 5175 5400 x\001
4 0 0 50 0 0 24 0.0000 4 255 165 5175 4200 y\001
4 0 0 50 0 0 32 0.0000 4 330 225 1350 4575 1\001
4 0 0 50 0 0 32 0.0000 4 330 225 3300 4650 2\001
4 0 0 50 0 0 32 0.0000 4 330 225 4425 3675 3\001
4 0 0 50 0 0 24 0.7854 4 300 2130 1950 3975 view beam 1,2\001
4 0 0 50 0 0 24 0.0000 4 300 2130 5475 4425 view beam 2,3\001
