#FIG 3.2
Landscape
Center
Inches
Letter  
100.00
Single
-2
1200 2
6 5850 2400 6150 2700
2 3 0 1 0 7 50 0 -1 0.000 0 0 -1 0 0 4
	 5850 2625 6000 2400 6150 2625 5850 2625
2 1 0 1 0 7 50 0 -1 0.000 0 0 -1 0 0 2
	 5850 2700 6150 2700
-6
2 1 0 3 0 7 50 0 -1 0.000 0 0 -1 0 0 2
	 1200 2400 6000 2400
2 3 0 1 0 7 50 0 -1 0.000 0 0 -1 0 0 4
	 1050 2625 1200 2400 1350 2625 1050 2625
2 1 0 2 0 7 50 0 -1 0.000 0 0 -1 1 0 2
	1 1 2.00 120.00 240.00
	 3450 3150 3450 2400
2 1 1 2 0 7 50 0 -1 6.000 0 0 -1 1 0 2
	1 1 2.00 120.00 240.00
	 3450 2400 3450 1875
3 0 1 2 0 7 50 0 -1 6.000 0 0 0 5
	 1200 2400 2550 2025 3450 1875 4500 2025 6000 2400
	 0.000 1.000 1.000 1.000 0.000
4 0 0 50 0 0 24 0.0000 4 255 255 1125 3075 A\001
4 0 0 50 0 0 24 0.0000 4 255 240 6000 3075 C\001
4 0 0 50 0 32 24 0.0000 4 255 180 3675 3000 1\001
4 0 0 50 0 32 24 0.0000 4 270 180 3600 2250 d\001
