#FIG 3.2
Landscape
Center
Metric
A4      
100.00
Single
-2
1200 2
6 2160 2250 2340 2475
2 3 0 1 0 7 50 0 -1 4.000 0 0 -1 0 0 4
	 2160 2430 2250 2250 2340 2430 2160 2430
2 1 0 1 0 7 50 0 -1 4.000 0 0 -1 0 0 2
	 2160 2475 2340 2475
-6
6 8775 2250 9315 2745
2 3 1 1 0 7 50 0 -1 4.000 0 0 -1 0 0 4
	 8775 2655 9000 2250 9270 2655 8775 2655
2 1 1 1 0 7 50 0 -1 4.000 0 0 -1 0 0 2
	 8775 2745 9315 2745
-6
6 8100 -3060 8820 -2610
4 0 0 50 0 0 32 0.0000 4 225 225 8100 -2835 o\001
4 0 0 50 0 0 24 0.0000 4 300 465 8325 -2655 3,4\001
-6
6 6795 360 7515 945
4 0 0 50 0 0 24 0.7854 4 300 465 7142 895 3,4\001
4 0 0 50 0 1 32 0.7854 4 210 180 6983 863 r\001
-6
6 3060 4815 3780 5400
4 0 0 50 0 1 32 0.7854 4 210 180 3248 5318 r\001
4 0 0 50 0 0 24 0.7854 4 300 465 3407 5350 2,3\001
-6
6 4050 3285 4860 3870
4 0 0 50 0 1 32 0.7854 4 330 120 4283 3833 l\001
4 0 0 50 0 0 24 0.7854 4 300 465 4474 3833 1,3\001
-6
2 1 0 2 0 7 50 0 -1 6.000 0 0 -1 0 0 2
	 2250 2250 9000 2250
2 1 0 2 0 7 50 0 -1 6.000 0 0 -1 0 0 2
	 3195 4050 4725 2250
2 1 3 3 0 7 50 0 -1 8.000 0 0 -1 0 0 2
	 9000 -3060 9000 4095
2 3 0 1 0 7 50 0 -1 4.000 0 0 -1 0 0 5
	 8640 3870 9360 3555 9360 3870 8640 3555 8640 3870
2 3 0 1 0 7 50 0 -1 4.000 0 0 -1 0 0 5
	 8640 1845 9360 1530 9360 1845 8640 1530 8640 1845
2 1 0 1 0 7 50 0 -1 4.000 0 0 -1 0 0 2
	 3015 3870 3375 4230
2 1 0 1 0 7 50 0 -1 4.000 0 0 -1 0 0 2
	 3105 3960 2925 3960
2 1 0 1 0 7 50 0 -1 4.000 0 0 -1 0 0 2
	 3195 4050 3015 4050
2 1 0 1 0 7 50 0 -1 4.000 0 0 -1 0 0 2
	 3375 4230 3195 4230
2 1 0 1 0 7 50 0 -1 4.000 0 0 -1 0 0 2
	 3285 4140 3105 4140
2 1 1 1 0 7 50 0 -1 4.000 0 0 -1 0 0 2
	 4725 2250 9090 -2970
2 1 1 3 0 7 50 0 -1 6.000 0 0 -1 0 0 2
	 3195 4050 4320 2025
2 1 1 3 0 7 50 0 -1 6.000 0 0 -1 0 0 2
	 1800 2250 4320 2025
2 1 1 3 0 7 50 0 -1 6.000 0 0 -1 0 0 2
	 4365 1980 8595 2250
2 1 1 1 0 7 50 0 -1 6.000 0 0 -1 0 0 2
	 3195 4050 2025 5400
2 1 1 1 0 7 50 0 -1 4.000 0 0 -1 0 0 2
	 2250 1665 2250 5400
2 1 0 1 0 7 50 0 -1 4.000 0 0 -1 0 0 2
	 3465 4365 3825 4725
2 1 0 1 0 7 50 0 -1 4.000 0 0 -1 0 0 2
	 5062 2542 5670 3150
2 1 0 1 0 7 50 0 -1 4.000 0 0 -1 0 0 2
	 2587 5602 2947 5962
2 1 0 1 0 7 50 0 -1 4.000 0 0 -1 1 1 2
	1 1 1.00 60.00 120.00
	1 1 1.00 60.00 120.00
	 3825 4680 5355 2835
2 1 0 1 0 7 50 0 -1 4.000 0 0 -1 1 1 2
	1 1 1.00 60.00 120.00
	1 1 1.00 60.00 120.00
	 2970 5940 5490 2970
2 1 0 1 0 7 50 0 -1 4.000 0 0 -1 1 1 2
	1 1 1.00 60.00 120.00
	1 1 1.00 60.00 120.00
	 5490 2970 9810 -2205
2 1 0 1 0 7 50 0 -1 4.000 0 0 -1 0 0 2
	 9540 -2475 9900 -2115
2 1 0 1 0 7 50 0 -1 4.000 0 0 -1 0 0 2
	 5715 4050 7065 4050
2 1 0 1 0 7 50 0 -1 4.000 0 0 -1 1 1 2
	1 1 1.00 60.00 120.00
	1 1 1.00 60.00 120.00
	 6975 4050 6975 2250
4 0 0 50 0 0 32 0.0000 4 330 225 1980 2700 2\001
4 0 0 50 0 0 32 0.0000 4 330 225 4815 2655 3\001
4 0 0 50 0 0 32 0.0000 4 330 225 8460 2700 4\001
4 0 0 50 0 0 32 0.0000 4 330 225 2925 3780 1\001
4 0 0 50 0 0 32 0.0000 4 225 225 3375 4140 o\001
4 0 0 50 0 0 32 0.0000 4 225 225 2340 5310 o\001
4 0 0 50 0 0 24 0.0000 4 300 465 3600 4275 1,3\001
4 0 0 50 0 0 24 0.0000 4 300 465 2565 5445 2,3\001
4 0 0 50 0 1 32 1.5708 4 330 255 6840 3375 h\001
