#FIG 3.2
Landscape
Center
Metric
A4      
100.00
Single
-2
1200 2
5 1 0 1 0 7 50 0 -1 4.000 0 1 1 0 2137.500 2272.500 2115 1980 1845 2295 2115 2565
	1 1 1.00 60.00 120.00
5 1 0 1 0 7 50 0 -1 4.000 0 1 1 0 6880.500 2205.000 6930 2475 7155 2205 6930 1935
	1 1 1.00 60.00 120.00
5 1 0 2 0 7 50 0 -1 0.000 0 1 1 0 4886.303 2050.669 5130 2115 4860 1800 4635 2070
	1 1 2.00 120.00 240.00
2 1 0 2 0 7 50 0 -1 6.000 0 0 -1 0 0 2
	 2250 2250 6750 2250
2 1 0 2 0 7 50 0 -1 6.000 0 0 -1 0 0 2
	 2250 1980 2250 2520
2 1 0 2 0 7 50 0 -1 6.000 0 0 -1 0 0 2
	 6750 1980 6750 2475
2 1 0 1 0 7 50 0 -1 4.000 0 0 -1 0 0 2
	 2250 1620 2250 1890
2 1 0 1 0 7 50 0 -1 4.000 0 0 -1 0 0 2
	 6750 1665 6750 1935
2 1 0 1 0 7 50 0 -1 4.000 0 0 -1 1 1 2
	1 1 1.00 60.00 120.00
	1 1 1.00 60.00 120.00
	 2250 1755 4860 1755
2 1 0 1 0 7 50 0 -1 4.000 0 0 -1 1 1 2
	1 1 1.00 60.00 120.00
	1 1 1.00 60.00 120.00
	 4860 1755 6750 1755
2 1 0 1 0 7 50 0 -1 4.000 0 0 -1 0 0 2
	 2250 2610 2250 2880
2 1 0 1 0 7 50 0 -1 4.000 0 0 -1 0 0 2
	 2250 2610 2250 2880
2 1 0 1 0 7 50 0 -1 4.000 0 0 -1 0 0 2
	 6750 2565 6750 2835
2 1 0 1 0 7 50 0 -1 4.000 0 0 -1 1 1 2
	1 1 1.00 60.00 120.00
	1 1 1.00 60.00 120.00
	 2250 2700 6750 2700
3 2 0 2 0 7 50 0 -1 0.000 0 0 0 2
	 4860 2070 4860 2385
	 0.000 0.000
4 0 0 50 0 1 24 0.0000 4 165 195 3510 1710 a\001
4 0 0 50 0 1 24 0.0000 4 255 180 5760 1710 b\001
4 0 0 50 0 1 24 0.0000 4 255 90 4545 2655 l\001
4 0 0 50 0 1 24 0.0000 4 255 300 1710 1845 M\001
4 0 0 50 0 1 24 0.0000 4 255 300 6885 1845 M\001
4 0 0 50 0 1 18 0.0000 4 195 75 1980 1935 i\001
4 0 0 50 0 1 18 0.0000 4 240 75 7155 1935 j\001
4 0 0 50 0 1 24 0.0000 4 255 300 5265 2160 M\001
